EESchema Schematic File Version 4
LIBS:rat4_MB-cache
EELAYER 26 0
EELAYER END
$Descr B 17000 11000
encoding utf-8
Sheet 1 1
Title "rat4 "
Date "2019-08-13"
Rev "v0.1"
Comp "./qusw"
Comment1 "based on ATmega328P"
Comment2 "Quad LFO"
Comment3 ""
Comment4 ""
$EndDescr
Wire Wire Line
	2150 1400 2150 1500
Text Label 4200 2200 0    60   ~ 0
P0
Text Label 4200 2300 0    60   ~ 0
P1
Text Label 4200 2400 0    60   ~ 0
P2
Text Label 4200 2500 0    60   ~ 0
P3
Text Label 4200 2600 0    60   ~ 0
P4
Text Label 2300 1850 0    60   ~ 0
RESET
Text Label 4200 2900 0    60   ~ 0
RX
Text Notes 4600 4650 0    60   ~ 0
Optional\nVoltage regulator
Wire Wire Line
	2450 2400 2150 2400
Wire Wire Line
	3750 4800 3750 5000
Wire Wire Line
	3000 3600 2150 3600
Connection ~ 2150 3600
Wire Wire Line
	2450 3200 2600 3200
Wire Wire Line
	2450 2900 2600 2900
Wire Wire Line
	2150 2100 2450 2100
Wire Wire Line
	2150 2400 2150 2900
$Comp
L Device:C C02
U 1 1 5D27286F
P 2600 2400
F 0 "C02" V 2348 2400 50  0000 C CNN
F 1 "0.1uF" V 2439 2400 50  0000 C CNN
F 2 "Capacitor_SMD:C_0805_2012Metric_Pad1.15x1.40mm_HandSolder" H 2638 2250 50  0001 C CNN
F 3 "~" H 2600 2400 50  0001 C CNN
	1    2600 2400
	0    1    1    0   
$EndComp
$Comp
L Device:R R2
U 1 1 5D2739AD
P 2650 1650
F 0 "R2" H 2720 1696 50  0000 L CNN
F 1 "10K" V 2650 1600 50  0000 L CNN
F 2 "Resistor_SMD:R_0805_2012Metric_Pad1.15x1.40mm_HandSolder" V 2580 1650 50  0001 C CNN
F 3 "~" H 2650 1650 50  0001 C CNN
	1    2650 1650
	1    0    0    -1  
$EndComp
$Comp
L Device:C CX1
U 1 1 5D274E00
P 2300 2900
F 0 "CX1" V 2150 2850 50  0000 C CNN
F 1 "30pF" V 2250 3050 50  0000 C CNN
F 2 "Capacitor_SMD:C_0805_2012Metric_Pad1.15x1.40mm_HandSolder" H 2338 2750 50  0001 C CNN
F 3 "~" H 2300 2900 50  0001 C CNN
	1    2300 2900
	0    1    1    0   
$EndComp
$Comp
L Device:C CX2
U 1 1 5D27514E
P 2300 3200
F 0 "CX2" V 2150 3150 50  0000 C CNN
F 1 "30pF" V 2250 3350 50  0000 C CNN
F 2 "Capacitor_SMD:C_0805_2012Metric_Pad1.15x1.40mm_HandSolder" H 2338 3050 50  0001 C CNN
F 3 "~" H 2300 3200 50  0001 C CNN
	1    2300 3200
	0    1    1    0   
$EndComp
Connection ~ 2150 2900
Wire Wire Line
	2150 2900 2150 3200
Connection ~ 2150 3200
Wire Wire Line
	2150 3200 2150 3600
$Comp
L Device:Crystal Y1
U 1 1 5D276CDF
P 2600 3050
F 0 "Y1" V 2500 3150 50  0000 L CNN
F 1 "20MHz" V 2600 2950 50  0000 L CNN
F 2 "Crystal:Crystal_HC49-U_Vertical" H 2600 3050 50  0001 C CNN
F 3 "~" H 2600 3050 50  0001 C CNN
	1    2600 3050
	0    1    1    0   
$EndComp
Connection ~ 2600 2900
Wire Wire Line
	2600 2900 2900 2900
Connection ~ 2600 3200
Wire Wire Line
	2600 3200 2900 3200
$Comp
L power:GND #PWR02
U 1 1 5D27A670
P 2150 3850
F 0 "#PWR02" H 2150 3600 50  0001 C CNN
F 1 "GND" H 2155 3677 50  0000 C CNN
F 2 "" H 2150 3850 50  0001 C CNN
F 3 "" H 2150 3850 50  0001 C CNN
	1    2150 3850
	1    0    0    -1  
$EndComp
$Comp
L atmega328P:ATmega328P-PU U0
U 1 1 5D2A9E0A
P 3600 2800
F 0 "U0" H 3550 3000 50  0000 R CNN
F 1 "ATmega328P-PU" H 3900 1750 50  0000 R CNN
F 2 "Package_DIP:DIP-28_W7.62mm" H 3600 2800 50  0001 C CIN
F 3 "http://ww1.microchip.com/downloads/en/DeviceDoc/ATmega328_P%20AVR%20MCU%20with%20picoPower%20Technology%20Data%20Sheet%2040001984A.pdf" H 3600 2800 50  0001 C CNN
	1    3600 2800
	1    0    0    -1  
$EndComp
Wire Wire Line
	2150 3600 2150 3850
Wire Wire Line
	3000 1850 2650 1850
Wire Wire Line
	2650 1850 2650 1800
Connection ~ 2650 1850
Wire Wire Line
	2650 1850 2300 1850
Wire Wire Line
	3000 1500 2650 1500
Connection ~ 2150 1500
Wire Wire Line
	2150 1500 2150 2100
Connection ~ 2650 1500
Wire Wire Line
	2650 1500 2150 1500
$Comp
L power:PWR_FLAG #FLG01
U 1 1 5D2CC900
P 2450 2100
F 0 "#FLG01" H 2450 2175 50  0001 C CNN
F 1 "PWR_FLAG" H 2450 2274 50  0000 C CNN
F 2 "" H 2450 2100 50  0001 C CNN
F 3 "~" H 2450 2100 50  0001 C CNN
	1    2450 2100
	1    0    0    -1  
$EndComp
Connection ~ 2450 2100
Wire Wire Line
	2450 2100 3000 2100
Text Label 4200 1900 0    60   ~ 0
MISO
Text Label 4200 2000 0    60   ~ 0
SCK
Text Label 4200 1800 0    60   ~ 0
MOSI
$Comp
L Regulator_Linear:L7805 U2
U 1 1 5D2F3CBB
P 4750 5000
F 0 "U2" H 4750 5242 50  0000 C CNN
F 1 "LM7805" H 4750 5151 50  0000 C CNN
F 2 "mod:R-78E5" H 4775 4850 50  0001 L CIN
F 3 "http://www.st.com/content/ccc/resource/technical/document/datasheet/41/4f/b3/b0/12/d4/47/88/CD00000444.pdf/files/CD00000444.pdf/jcr:content/translations/en.CD00000444.pdf" H 4750 4950 50  0001 C CNN
	1    4750 5000
	1    0    0    -1  
$EndComp
$Comp
L Device:C C22
U 1 1 5D2F4E84
P 5650 5250
F 0 "C22" H 5765 5296 50  0000 L CNN
F 1 "0.1uF" H 5765 5205 50  0000 L CNN
F 2 "Capacitor_SMD:C_0805_2012Metric_Pad1.15x1.40mm_HandSolder" H 5688 5100 50  0001 C CNN
F 3 "~" H 5650 5250 50  0001 C CNN
	1    5650 5250
	1    0    0    -1  
$EndComp
$Comp
L power:+12V #PWR042
U 1 1 5D2F5C2F
P 3750 4800
F 0 "#PWR042" H 3750 4650 50  0001 C CNN
F 1 "+12V" H 3765 4973 50  0000 C CNN
F 2 "" H 3750 4800 50  0001 C CNN
F 3 "" H 3750 4800 50  0001 C CNN
	1    3750 4800
	1    0    0    -1  
$EndComp
$Comp
L power:GND #PWR044
U 1 1 5D2F65B9
P 4750 5550
F 0 "#PWR044" H 4750 5300 50  0001 C CNN
F 1 "GND" H 4755 5377 50  0000 C CNN
F 2 "" H 4750 5550 50  0001 C CNN
F 3 "" H 4750 5550 50  0001 C CNN
	1    4750 5550
	1    0    0    -1  
$EndComp
Wire Wire Line
	3750 5000 4150 5000
Wire Wire Line
	5050 5000 5250 5000
Connection ~ 4150 5000
Wire Wire Line
	4150 5000 4450 5000
Wire Wire Line
	5250 5000 5250 5100
Connection ~ 5250 5000
Wire Wire Line
	5250 5000 5650 5000
Wire Wire Line
	4750 5300 4750 5500
$Comp
L power:PWR_FLAG #FLG02
U 1 1 5D3236D5
P 4150 5000
F 0 "#FLG02" H 4150 5075 50  0001 C CNN
F 1 "PWR_FLAG" H 4150 5174 50  0000 C CNN
F 2 "" H 4150 5000 50  0001 C CNN
F 3 "~" H 4150 5000 50  0001 C CNN
	1    4150 5000
	1    0    0    -1  
$EndComp
$Comp
L Device:C C21
U 1 1 5D2A9C76
P 4150 5750
F 0 "C21" H 4265 5796 50  0000 L CNN
F 1 "0.1uF" H 4265 5705 50  0000 L CNN
F 2 "Capacitor_SMD:C_0805_2012Metric_Pad1.15x1.40mm_HandSolder" H 4188 5600 50  0001 C CNN
F 3 "~" H 4150 5750 50  0001 C CNN
	1    4150 5750
	1    0    0    -1  
$EndComp
$Comp
L Device:CP CP20
U 1 1 5D2A9FC2
P 3750 5250
F 0 "CP20" H 3850 5250 50  0000 L CNN
F 1 "100uF" H 3800 5150 50  0000 L CNN
F 2 "Capacitor_THT:CP_Radial_D5.0mm_P2.00mm" H 3788 5100 50  0001 C CNN
F 3 "~" H 3750 5250 50  0001 C CNN
	1    3750 5250
	1    0    0    -1  
$EndComp
$Comp
L Device:CP CP21
U 1 1 5D2AA050
P 3750 5750
F 0 "CP21" H 3850 5750 50  0000 L CNN
F 1 "100uF" H 3800 5650 50  0000 L CNN
F 2 "Capacitor_THT:CP_Radial_D5.0mm_P2.00mm" H 3788 5600 50  0001 C CNN
F 3 "~" H 3750 5750 50  0001 C CNN
	1    3750 5750
	1    0    0    -1  
$EndComp
$Comp
L power:-12V #PWR043
U 1 1 5D2AA1E9
P 3750 6200
F 0 "#PWR043" H 3750 6300 50  0001 C CNN
F 1 "-12V" H 3765 6373 50  0000 C CNN
F 2 "" H 3750 6200 50  0001 C CNN
F 3 "" H 3750 6200 50  0001 C CNN
	1    3750 6200
	-1   0    0    1   
$EndComp
Wire Wire Line
	3750 5000 3750 5100
Connection ~ 3750 5000
$Comp
L Device:CP CP22
U 1 1 5D2B830C
P 5250 5250
F 0 "CP22" H 5350 5250 50  0000 L CNN
F 1 "100uF" H 5300 5150 50  0000 L CNN
F 2 "Capacitor_THT:CP_Radial_D5.0mm_P2.00mm" H 5288 5100 50  0001 C CNN
F 3 "~" H 5250 5250 50  0001 C CNN
	1    5250 5250
	1    0    0    -1  
$EndComp
Wire Wire Line
	3750 5400 3750 5500
Wire Wire Line
	5650 5000 5650 5100
Wire Wire Line
	3750 6050 3750 6200
Wire Wire Line
	3750 6050 4150 6050
Connection ~ 3750 6050
Wire Wire Line
	3750 6050 3750 5900
$Comp
L Device:C C20
U 1 1 5D2DBD1D
P 4150 5250
F 0 "C20" H 4265 5296 50  0000 L CNN
F 1 "0.1uF" H 4265 5205 50  0000 L CNN
F 2 "Capacitor_SMD:C_0805_2012Metric_Pad1.15x1.40mm_HandSolder" H 4188 5100 50  0001 C CNN
F 3 "~" H 4150 5250 50  0001 C CNN
	1    4150 5250
	1    0    0    -1  
$EndComp
Wire Wire Line
	3750 5500 4150 5500
Wire Wire Line
	5650 5500 5650 5400
Connection ~ 3750 5500
Wire Wire Line
	3750 5500 3750 5600
Wire Wire Line
	5250 5400 5250 5500
Connection ~ 5250 5500
Wire Wire Line
	5250 5500 5650 5500
Wire Wire Line
	4150 5400 4150 5500
Connection ~ 4150 5500
Wire Wire Line
	4150 5500 4750 5500
Connection ~ 4750 5500
Wire Wire Line
	4750 5500 5250 5500
Wire Wire Line
	4750 5550 4750 5500
Wire Wire Line
	4150 5500 4150 5600
Wire Wire Line
	4150 5100 4150 5000
$Comp
L power:PWR_FLAG #FLG03
U 1 1 5D2F8FB4
P 4150 6050
F 0 "#FLG03" H 4150 6125 50  0001 C CNN
F 1 "PWR_FLAG" H 4150 6224 50  0000 C CNN
F 2 "" H 4150 6050 50  0001 C CNN
F 3 "~" H 4150 6050 50  0001 C CNN
	1    4150 6050
	-1   0    0    1   
$EndComp
Connection ~ 4150 6050
Wire Wire Line
	4150 5900 4150 6050
$Comp
L Connector_Generic:Conn_02x08_Odd_Even J21
U 1 1 5D3021F3
P 2650 5900
F 0 "J21" H 2700 5300 50  0000 C CNN
F 1 "HE14" H 2700 5400 50  0000 C CNN
F 2 "mod:Eurorack-HE14" H 2650 5900 50  0001 C CNN
F 3 "~" H 2650 5900 50  0001 C CNN
	1    2650 5900
	-1   0    0    1   
$EndComp
Text Label 3800 6050 0    60   ~ 0
-12V
Text Label 3800 5000 0    60   ~ 0
+12V
Text Label 5400 5000 0    60   ~ 0
VREG
Wire Notes Line
	4500 4450 4500 5800
Wire Notes Line
	4500 5800 6050 5800
Text Label 2850 5700 0    60   ~ 0
+5V
Text Label 2850 5800 0    60   ~ 0
+12V
Text Label 4850 5500 0    60   ~ 0
GND
Text Label 2850 5900 0    60   ~ 0
GND
Text Label 2850 6000 0    60   ~ 0
GND
Text Label 2850 6100 0    60   ~ 0
GND
Text Label 2850 6200 0    60   ~ 0
-12V
Wire Wire Line
	2350 6200 2850 6200
Wire Wire Line
	2350 6100 2850 6100
Wire Wire Line
	2350 6000 2850 6000
Wire Wire Line
	2350 5900 2850 5900
Wire Wire Line
	2350 5800 2850 5800
Wire Wire Line
	2350 5700 2850 5700
$Comp
L Device:C C30
U 1 1 5D33AF54
P 3500 8850
F 0 "C30" H 3615 8896 50  0000 L CNN
F 1 "0.1uF" H 3615 8805 50  0000 L CNN
F 2 "Capacitor_SMD:C_0805_2012Metric_Pad1.15x1.40mm_HandSolder" H 3538 8700 50  0001 C CNN
F 3 "~" H 3500 8850 50  0001 C CNN
	1    3500 8850
	1    0    0    -1  
$EndComp
$Comp
L power:GND #PWR041
U 1 1 5D33BE03
P 3500 9000
F 0 "#PWR041" H 3500 8750 50  0001 C CNN
F 1 "GND" H 3505 8827 50  0000 C CNN
F 2 "" H 3500 9000 50  0001 C CNN
F 3 "" H 3500 9000 50  0001 C CNN
	1    3500 9000
	1    0    0    -1  
$EndComp
$Comp
L power:GND #PWR034
U 1 1 5D34608E
P 2400 9300
F 0 "#PWR034" H 2400 9050 50  0001 C CNN
F 1 "GND" H 2405 9127 50  0000 C CNN
F 2 "" H 2400 9300 50  0001 C CNN
F 3 "" H 2400 9300 50  0001 C CNN
	1    2400 9300
	1    0    0    -1  
$EndComp
Wire Wire Line
	2400 8300 2600 8300
$Comp
L Analog_DAC:MCP4922-EP U3
U 1 1 5D300AC8
P 2500 8800
F 0 "U3" H 2350 8850 50  0000 L CNN
F 1 "MCP4922-EP" H 2450 8800 50  0000 L CNN
F 2 "Package_DIP:DIP-14_W7.62mm" H 2500 8800 50  0001 C CIN
F 3 "http://ww1.microchip.com/downloads/en/devicedoc/21897a.pdf" H 2500 8800 50  0001 C CNN
	1    2500 8800
	1    0    0    -1  
$EndComp
Text Label 1900 8800 2    60   ~ 0
CSB
Text Label 1900 8700 2    60   ~ 0
SCK
Text Label 1900 8600 2    60   ~ 0
MOSI
Text Label 3100 8600 0    60   ~ 0
VO3
Text Label 3100 9000 0    60   ~ 0
VO4
$Comp
L Device:C C10
U 1 1 5D366ECD
P 3500 7350
F 0 "C10" H 3615 7396 50  0000 L CNN
F 1 "0.1uF" H 3615 7305 50  0000 L CNN
F 2 "Capacitor_SMD:C_0805_2012Metric_Pad1.15x1.40mm_HandSolder" H 3538 7200 50  0001 C CNN
F 3 "~" H 3500 7350 50  0001 C CNN
	1    3500 7350
	1    0    0    -1  
$EndComp
$Comp
L power:GND #PWR039
U 1 1 5D366EDA
P 3500 7500
F 0 "#PWR039" H 3500 7250 50  0001 C CNN
F 1 "GND" H 3505 7327 50  0000 C CNN
F 2 "" H 3500 7500 50  0001 C CNN
F 3 "" H 3500 7500 50  0001 C CNN
	1    3500 7500
	1    0    0    -1  
$EndComp
Wire Wire Line
	2400 6800 2600 6800
Text Label 1900 7300 2    60   ~ 0
CSA
Text Label 1900 7200 2    60   ~ 0
SCK
Text Label 1900 7100 2    60   ~ 0
MOSI
Text Label 3100 7100 0    60   ~ 0
VO1
Text Label 3100 7500 0    60   ~ 0
VO2
Text Label 1900 8900 2    60   ~ 0
GND
Text Label 1900 9000 2    60   ~ 0
GND
$Comp
L Analog_DAC:MCP4922-EP U1
U 1 1 5D366EEE
P 2500 7300
F 0 "U1" H 2350 7350 50  0000 L CNN
F 1 "MCP4922-EP" H 2450 7300 50  0000 L CNN
F 2 "Package_DIP:DIP-14_W7.62mm" H 2500 7300 50  0001 C CIN
F 3 "http://ww1.microchip.com/downloads/en/devicedoc/21897a.pdf" H 2500 7300 50  0001 C CNN
	1    2500 7300
	1    0    0    -1  
$EndComp
Text Label 1900 7400 2    60   ~ 0
GND
Text Label 1900 7500 2    60   ~ 0
GND
$Comp
L Connector_Generic:Conn_02x05_Odd_Even J1
U 1 1 5D37767B
P 4700 8850
F 0 "J1" H 4750 9267 50  0000 C CNN
F 1 "USBasp" H 4750 9176 50  0000 C CNN
F 2 "mod:evusbasp-hdr" H 4700 8850 50  0001 C CNN
F 3 "~" H 4700 8850 50  0001 C CNN
	1    4700 8850
	1    0    0    -1  
$EndComp
Text Label 4500 8650 2    60   ~ 0
MOSI
Text Label 4500 8850 2    60   ~ 0
RESET
NoConn ~ 4500 8750
Text Label 4500 8950 2    60   ~ 0
SCK
Text Label 4500 9050 2    60   ~ 0
MISO
Text Label 5000 9050 0    60   ~ 0
GND
Text Label 5000 8950 0    60   ~ 0
GND
Text Label 5000 8650 0    60   ~ 0
VUSB
Text Label 5000 8850 0    60   ~ 0
GND
Text Label 5000 8750 0    60   ~ 0
GND
Wire Wire Line
	2750 2400 3000 2400
$Comp
L Device:R R1
U 1 1 5D3855D4
P 2900 3050
F 0 "R1" H 2950 3100 50  0000 L CNN
F 1 "1M" V 2900 3000 50  0000 L CNN
F 2 "Resistor_SMD:R_0805_2012Metric_Pad1.15x1.40mm_HandSolder" V 2830 3050 50  0001 C CNN
F 3 "~" H 2900 3050 50  0001 C CNN
	1    2900 3050
	1    0    0    -1  
$EndComp
Connection ~ 2900 2900
Wire Wire Line
	2900 2900 3000 2900
Connection ~ 2900 3200
Wire Wire Line
	2900 3200 3000 3200
$Comp
L Connector_Generic:Conn_01x02 J2
U 1 1 5D386CC4
P 4750 9350
F 0 "J2" H 4830 9342 50  0000 L CNN
F 1 "FTDI" H 4830 9251 50  0000 L CNN
F 2 "Connector_PinHeader_2.54mm:PinHeader_1x02_P2.54mm_Vertical" H 4750 9350 50  0001 C CNN
F 3 "~" H 4750 9350 50  0001 C CNN
	1    4750 9350
	1    0    0    -1  
$EndComp
Text Label 4550 9350 2    60   ~ 0
GND
Text Label 4550 9450 2    60   ~ 0
TX
$Comp
L Isolator:6N138 U4
U 1 1 5D2B7E57
P 5550 7150
F 0 "U4" H 5550 7617 50  0000 C CNN
F 1 "6N138" H 5550 7526 50  0000 C CNN
F 2 "Package_DIP:DIP-8_W7.62mm" H 5840 6850 50  0001 C CNN
F 3 "http://www.onsemi.com/pub/Collateral/HCPL2731-D.pdf" H 5840 6850 50  0001 C CNN
	1    5550 7150
	1    0    0    -1  
$EndComp
$Comp
L Device:D D40
U 1 1 5D2B801C
P 5050 7100
F 0 "D40" V 5050 7150 50  0000 L CNN
F 1 "1N4148" H 4900 7000 50  0000 L CNN
F 2 "Diode_SMD:D_SOD-323_HandSoldering" H 5050 7100 50  0001 C CNN
F 3 "~" H 5050 7100 50  0001 C CNN
	1    5050 7100
	0    1    1    0   
$EndComp
$Comp
L Device:R R40
U 1 1 5D2B8229
P 4150 7100
F 0 "R40" H 4220 7146 50  0000 L CNN
F 1 "220" V 4150 7050 50  0000 L CNN
F 2 "Resistor_SMD:R_0805_2012Metric_Pad1.15x1.40mm_HandSolder" V 4080 7100 50  0001 C CNN
F 3 "~" H 4150 7100 50  0001 C CNN
	1    4150 7100
	1    0    0    -1  
$EndComp
Text Notes 4400 7350 0    60   ~ 0
MIDI IN
Wire Wire Line
	5050 7250 5250 7250
Wire Wire Line
	5250 6950 5250 7050
Wire Wire Line
	5050 6950 5250 6950
Connection ~ 5050 6950
Connection ~ 5050 7250
Wire Wire Line
	4150 6950 5050 6950
$Comp
L Device:R R41
U 1 1 5D2C785E
P 6050 7050
F 0 "R41" H 6120 7096 50  0000 L CNN
F 1 "220" V 6050 7000 50  0000 L CNN
F 2 "Resistor_SMD:R_0805_2012Metric_Pad1.15x1.40mm_HandSolder" V 5980 7050 50  0001 C CNN
F 3 "~" H 6050 7050 50  0001 C CNN
	1    6050 7050
	1    0    0    -1  
$EndComp
$Comp
L power:VDD #PWR01
U 1 1 5D2C81B5
P 2150 1400
F 0 "#PWR01" H 2150 1250 50  0001 C CNN
F 1 "VDD" H 2167 1573 50  0000 C CNN
F 2 "" H 2150 1400 50  0001 C CNN
F 3 "" H 2150 1400 50  0001 C CNN
	1    2150 1400
	1    0    0    -1  
$EndComp
$Comp
L power:VDD #PWR037
U 1 1 5D2C828D
P 2350 4600
F 0 "#PWR037" H 2350 4450 50  0001 C CNN
F 1 "VDD" H 2367 4773 50  0000 C CNN
F 2 "" H 2350 4600 50  0001 C CNN
F 3 "" H 2350 4600 50  0001 C CNN
	1    2350 4600
	1    0    0    -1  
$EndComp
$Comp
L Connector_Generic:Conn_02x03_Odd_Even J20
U 1 1 5D2C95F2
P 2550 4950
F 0 "J20" H 2600 5267 50  0000 C CNN
F 1 "VDD" H 2600 5176 50  0000 C CNN
F 2 "Connector_PinHeader_2.54mm:PinHeader_2x03_P2.54mm_Vertical" H 2550 4950 50  0001 C CNN
F 3 "~" H 2550 4950 50  0001 C CNN
	1    2550 4950
	1    0    0    -1  
$EndComp
Text Label 2850 5050 0    60   ~ 0
VUSB
Text Label 2850 4850 0    60   ~ 0
+5V
$Comp
L power:VDD #PWR038
U 1 1 5D2CB817
P 3500 7200
F 0 "#PWR038" H 3500 7050 50  0001 C CNN
F 1 "VDD" H 3517 7373 50  0000 C CNN
F 2 "" H 3500 7200 50  0001 C CNN
F 3 "" H 3500 7200 50  0001 C CNN
	1    3500 7200
	1    0    0    -1  
$EndComp
$Comp
L power:VDD #PWR040
U 1 1 5D2CCC80
P 3500 8700
F 0 "#PWR040" H 3500 8550 50  0001 C CNN
F 1 "VDD" H 3517 8873 50  0000 C CNN
F 2 "" H 3500 8700 50  0001 C CNN
F 3 "" H 3500 8700 50  0001 C CNN
	1    3500 8700
	1    0    0    -1  
$EndComp
$Comp
L power:VDD #PWR033
U 1 1 5D2CCF12
P 2400 8300
F 0 "#PWR033" H 2400 8150 50  0001 C CNN
F 1 "VDD" H 2417 8473 50  0000 C CNN
F 2 "" H 2400 8300 50  0001 C CNN
F 3 "" H 2400 8300 50  0001 C CNN
	1    2400 8300
	1    0    0    -1  
$EndComp
Connection ~ 2400 8300
$Comp
L power:VDD #PWR031
U 1 1 5D2CD20A
P 2400 6800
F 0 "#PWR031" H 2400 6650 50  0001 C CNN
F 1 "VDD" H 2417 6973 50  0000 C CNN
F 2 "" H 2400 6800 50  0001 C CNN
F 3 "" H 2400 6800 50  0001 C CNN
	1    2400 6800
	1    0    0    -1  
$EndComp
Connection ~ 2400 6800
Text Label 2850 4950 0    60   ~ 0
VREG
Wire Wire Line
	2350 4850 2350 4950
Connection ~ 2350 4950
Wire Wire Line
	2350 4950 2350 5050
$Comp
L power:VDD #PWR047
U 1 1 5D2D5B25
P 6050 6750
F 0 "#PWR047" H 6050 6600 50  0001 C CNN
F 1 "VDD" H 6067 6923 50  0000 C CNN
F 2 "" H 6050 6750 50  0001 C CNN
F 3 "" H 6050 6750 50  0001 C CNN
	1    6050 6750
	1    0    0    -1  
$EndComp
$Comp
L Device:R R42
U 1 1 5D2D8CBA
P 5950 7550
F 0 "R42" H 6020 7596 50  0000 L CNN
F 1 "4.7k" V 5950 7450 50  0000 L CNN
F 2 "Resistor_SMD:R_0805_2012Metric_Pad1.15x1.40mm_HandSolder" V 5880 7550 50  0001 C CNN
F 3 "~" H 5950 7550 50  0001 C CNN
	1    5950 7550
	1    0    0    -1  
$EndComp
Wire Wire Line
	5850 7250 6050 7250
Wire Wire Line
	6050 7200 6050 7250
Connection ~ 6050 7250
Wire Wire Line
	6050 7250 6200 7250
$Comp
L power:GND #PWR046
U 1 1 5D2DEA0D
P 5950 7700
F 0 "#PWR046" H 5950 7450 50  0001 C CNN
F 1 "GND" H 5955 7527 50  0000 C CNN
F 2 "" H 5950 7700 50  0001 C CNN
F 3 "" H 5950 7700 50  0001 C CNN
	1    5950 7700
	1    0    0    -1  
$EndComp
Wire Wire Line
	5850 7050 5950 7050
Wire Wire Line
	5950 7050 5950 7400
Wire Wire Line
	5850 7350 5850 7700
Wire Wire Line
	5850 7700 5950 7700
Connection ~ 5950 7700
Text Label 6200 7250 0    60   ~ 0
RX
Wire Wire Line
	5850 6950 5850 6850
Wire Wire Line
	6050 6750 6050 6850
Wire Wire Line
	5850 6850 6050 6850
Connection ~ 6050 6850
Wire Wire Line
	6050 6850 6050 6900
Wire Notes Line
	4000 6500 6400 6500
Wire Notes Line
	6400 6500 6400 8250
Wire Notes Line
	6400 8250 4000 8250
Wire Notes Line
	4000 8250 4000 6500
Text Notes 4050 6750 0    60   ~ 0
optional MIDI clock\n+ CC support\n
Wire Notes Line
	1650 4300 1650 6450
Wire Notes Line
	1650 6450 6400 6450
Wire Notes Line
	6400 6450 6400 4300
Wire Notes Line
	4000 8300 5350 8300
Wire Notes Line
	5350 8300 5350 9600
Wire Notes Line
	5350 9600 4000 9600
Wire Notes Line
	4000 9600 4000 8300
Text Notes 4050 8450 0    60   ~ 0
PROG
$Comp
L Device:LED D20
U 1 1 5D334861
P 2100 4750
F 0 "D20" V 2100 4650 50  0000 C CNN
F 1 "PWR" V 2200 4650 50  0000 C CNN
F 2 "LED_SMD:LED_0805_2012Metric_Pad1.15x1.40mm_HandSolder" H 2100 4750 50  0001 C CNN
F 3 "~" H 2100 4750 50  0001 C CNN
	1    2100 4750
	0    -1   -1   0   
$EndComp
$Comp
L power:GND #PWR036
U 1 1 5D3350C7
P 2100 5200
F 0 "#PWR036" H 2100 4950 50  0001 C CNN
F 1 "GND" H 2105 5027 50  0000 C CNN
F 2 "" H 2100 5200 50  0001 C CNN
F 3 "" H 2100 5200 50  0001 C CNN
	1    2100 5200
	1    0    0    -1  
$EndComp
$Comp
L Device:R R20
U 1 1 5D337AA5
P 2100 5050
F 0 "R20" H 2170 5096 50  0000 L CNN
F 1 "1k" V 2100 5000 50  0000 L CNN
F 2 "Resistor_SMD:R_0805_2012Metric_Pad1.15x1.40mm_HandSolder" V 2030 5050 50  0001 C CNN
F 3 "~" H 2100 5050 50  0001 C CNN
	1    2100 5050
	1    0    0    -1  
$EndComp
Text Notes 6000 6350 0    60   ~ 0
POWER
Wire Wire Line
	2350 4600 2100 4600
Wire Wire Line
	2350 4600 2350 4850
Connection ~ 2350 4600
Connection ~ 2350 4850
Wire Notes Line
	4500 4450 6050 4450
Wire Notes Line
	6050 4450 6050 5800
Text Label 4200 2700 0    60   ~ 0
P5
Text Label 4200 3100 0    60   ~ 0
CLK
Text Label 4200 3300 0    60   ~ 0
S1
Text Label 4200 3400 0    60   ~ 0
S2
Text Label 4200 3500 0    60   ~ 0
S3
Text Label 4200 3600 0    60   ~ 0
S4
Wire Notes Line
	1650 1100 1650 4250
Wire Notes Line
	1650 4250 4950 4250
Text Notes 4650 4200 0    60   ~ 0
MCU
Wire Notes Line
	1650 9600 3950 9600
Wire Notes Line
	3950 9600 3950 6500
Wire Notes Line
	3950 6500 1650 6500
Text Notes 3650 6650 0    60   ~ 0
DAC
$Comp
L Amplifier_Operational:TL074 U6
U 1 1 5D47095A
P 8450 2400
F 0 "U6" H 8500 2250 50  0000 C CNN
F 1 "TL074" H 8400 2400 50  0000 C CNN
F 2 "Package_SO:SOIC-14_3.9x8.7mm_P1.27mm" H 8400 2500 50  0001 C CNN
F 3 "http://www.ti.com/lit/ds/symlink/tl071.pdf" H 8500 2600 50  0001 C CNN
	1    8450 2400
	1    0    0    1   
$EndComp
$Comp
L Device:C C61
U 1 1 5D470BD2
P 7450 2550
F 0 "C61" H 7565 2596 50  0000 L CNN
F 1 "0.1uF" H 7565 2505 50  0000 L CNN
F 2 "Capacitor_SMD:C_0805_2012Metric_Pad1.15x1.40mm_HandSolder" H 7488 2400 50  0001 C CNN
F 3 "~" H 7450 2550 50  0001 C CNN
	1    7450 2550
	1    0    0    -1  
$EndComp
$Comp
L power:+12V #PWR064
U 1 1 5D4715E3
P 10500 3300
F 0 "#PWR064" H 10500 3150 50  0001 C CNN
F 1 "+12V" H 10500 3450 50  0000 C CNN
F 2 "" H 10500 3300 50  0001 C CNN
F 3 "" H 10500 3300 50  0001 C CNN
	1    10500 3300
	1    0    0    -1  
$EndComp
$Comp
L power:-12V #PWR065
U 1 1 5D471656
P 10500 3900
F 0 "#PWR065" H 10500 4000 50  0001 C CNN
F 1 "-12V" H 10515 4073 50  0000 C CNN
F 2 "" H 10500 3900 50  0001 C CNN
F 3 "" H 10500 3900 50  0001 C CNN
	1    10500 3900
	-1   0    0    1   
$EndComp
$Comp
L Device:R R60
U 1 1 5D473930
P 7850 2300
F 0 "R60" V 7750 2300 50  0000 L CNN
F 1 "100K" V 7850 2200 50  0000 L CNN
F 2 "Resistor_SMD:R_0805_2012Metric_Pad1.15x1.40mm_HandSolder" V 7780 2300 50  0001 C CNN
F 3 "~" H 7850 2300 50  0001 C CNN
	1    7850 2300
	0    1    1    0   
$EndComp
$Comp
L Device:R R61
U 1 1 5D475EF6
P 8500 2000
F 0 "R61" V 8400 1950 50  0000 L CNN
F 1 "200K" V 8500 1900 50  0000 L CNN
F 2 "Resistor_SMD:R_0805_2012Metric_Pad1.15x1.40mm_HandSolder" V 8430 2000 50  0001 C CNN
F 3 "~" H 8500 2000 50  0001 C CNN
	1    8500 2000
	0    1    1    0   
$EndComp
$Comp
L power:GND #PWR048
U 1 1 5D4774FE
P 7200 2800
F 0 "#PWR048" H 7200 2550 50  0001 C CNN
F 1 "GND" H 7205 2627 50  0000 C CNN
F 2 "" H 7200 2800 50  0001 C CNN
F 3 "" H 7200 2800 50  0001 C CNN
	1    7200 2800
	1    0    0    -1  
$EndComp
Wire Wire Line
	7450 2300 7700 2300
Wire Wire Line
	7450 2300 7450 2400
Wire Wire Line
	7450 2700 7450 2800
Wire Wire Line
	8150 2500 8150 2800
Wire Wire Line
	8000 2300 8100 2300
Wire Wire Line
	8350 2000 8100 2000
Wire Wire Line
	8100 2000 8100 2300
Connection ~ 8100 2300
Wire Wire Line
	8100 2300 8150 2300
Text Label 7200 2300 2    60   ~ 0
VO1
Wire Wire Line
	7450 2800 8150 2800
Wire Wire Line
	7450 2800 7200 2800
Connection ~ 7450 2800
Connection ~ 7450 2300
Text Notes 8250 2750 0    60   ~ 0
G=-2
$Comp
L Device:R R62
U 1 1 5D49A019
P 9000 2400
F 0 "R62" V 8900 2400 50  0000 L CNN
F 1 "100K" V 9000 2300 50  0000 L CNN
F 2 "Resistor_SMD:R_0805_2012Metric_Pad1.15x1.40mm_HandSolder" V 8930 2400 50  0001 C CNN
F 3 "~" H 9000 2400 50  0001 C CNN
	1    9000 2400
	0    1    1    0   
$EndComp
$Comp
L Device:R R65
U 1 1 5D49A165
P 9600 2150
F 0 "R65" V 9500 2100 50  0000 L CNN
F 1 "100K" V 9600 2050 50  0000 L CNN
F 2 "Resistor_SMD:R_0805_2012Metric_Pad1.15x1.40mm_HandSolder" V 9530 2150 50  0001 C CNN
F 3 "~" H 9600 2150 50  0001 C CNN
	1    9600 2150
	0    1    1    0   
$EndComp
$Comp
L Device:R R64
U 1 1 5D49A20D
P 9200 1950
F 0 "R64" V 9100 1900 50  0000 L CNN
F 1 "100K" V 9200 1850 50  0000 L CNN
F 2 "Resistor_SMD:R_0805_2012Metric_Pad1.15x1.40mm_HandSolder" V 9130 1950 50  0001 C CNN
F 3 "~" H 9200 1950 50  0001 C CNN
	1    9200 1950
	-1   0    0    1   
$EndComp
$Comp
L power:VDD #PWR060
U 1 1 5D49BB52
P 9200 1800
F 0 "#PWR060" H 9200 1650 50  0001 C CNN
F 1 "VDD" H 9217 1973 50  0000 C CNN
F 2 "" H 9200 1800 50  0001 C CNN
F 3 "" H 9200 1800 50  0001 C CNN
	1    9200 1800
	1    0    0    -1  
$EndComp
Wire Wire Line
	9200 2400 9250 2400
Wire Wire Line
	9150 2400 9200 2400
Connection ~ 9200 2400
Wire Wire Line
	8850 2400 8800 2400
Wire Wire Line
	8150 2800 9250 2800
Wire Wire Line
	9250 2800 9250 2600
Connection ~ 8150 2800
Wire Wire Line
	9450 2150 9200 2150
Wire Wire Line
	9200 2150 9200 2400
Wire Wire Line
	9200 2100 9200 2150
Connection ~ 9200 2150
Text Notes 9350 2800 0    60   ~ 0
Vout=Vin+5V
Text Notes 6900 2550 0    60   ~ 0
0-4.95V
Text Notes 8600 2600 0    60   ~ 0
-10V;0V\n
$Comp
L Device:C C60
U 1 1 5D4C47D9
P 10500 3600
F 0 "C60" H 10250 3700 50  0000 L CNN
F 1 "0.1uF" H 10200 3600 50  0000 L CNN
F 2 "Capacitor_SMD:C_0805_2012Metric_Pad1.15x1.40mm_HandSolder" H 10538 3450 50  0001 C CNN
F 3 "~" H 10500 3600 50  0001 C CNN
	1    10500 3600
	1    0    0    -1  
$EndComp
Wire Wire Line
	8650 2000 8800 2000
Wire Wire Line
	8800 2000 8800 2400
Connection ~ 8800 2400
Wire Wire Line
	8800 2400 8750 2400
Text Notes 7850 1850 0    60   ~ 0
Gain Stage
Text Notes 9500 1850 0    60   ~ 0
Summing Stage
$Comp
L Device:R_POT_TRIM RV60
U 1 1 5D5974A1
P 7450 1750
F 0 "RV60" V 7350 1800 50  0000 R CNN
F 1 "50K" V 7450 1800 50  0000 R CNN
F 2 "mod:Piher-PT10" H 7450 1750 50  0001 C CNN
F 3 "~" H 7450 1750 50  0001 C CNN
	1    7450 1750
	1    0    0    1   
$EndComp
$Comp
L Device:R R63
U 1 1 5D5C13EF
P 9000 1950
F 0 "R63" V 8900 1900 50  0000 L CNN
F 1 "1M" V 9000 1900 50  0000 L CNN
F 2 "Resistor_SMD:R_0805_2012Metric_Pad1.15x1.40mm_HandSolder" V 8930 1950 50  0001 C CNN
F 3 "~" H 9000 1950 50  0001 C CNN
	1    9000 1950
	-1   0    0    1   
$EndComp
Wire Wire Line
	9000 2150 9200 2150
Wire Wire Line
	9750 2150 9900 2150
$Comp
L Amplifier_Operational:TL074 U6
U 2 1 5D49A0BF
P 9550 2500
F 0 "U6" H 9650 2350 50  0000 C CNN
F 1 "TL074" H 9500 2500 50  0000 C CNN
F 2 "Package_SO:SOIC-14_3.9x8.7mm_P1.27mm" H 9500 2600 50  0001 C CNN
F 3 "http://www.ti.com/lit/ds/symlink/tl071.pdf" H 9600 2700 50  0001 C CNN
	2    9550 2500
	1    0    0    1   
$EndComp
Wire Wire Line
	10100 2500 9900 2500
Wire Wire Line
	9900 2150 9900 2500
Connection ~ 9900 2500
Wire Wire Line
	9900 2500 9850 2500
Text Label 9000 1700 1    60   ~ 0
OFF1
Wire Wire Line
	9000 2100 9000 2150
$Comp
L power:+12V #PWR052
U 1 1 5D6A7D73
P 7450 1600
F 0 "#PWR052" H 7450 1450 50  0001 C CNN
F 1 "+12V" H 7465 1773 50  0000 C CNN
F 2 "" H 7450 1600 50  0001 C CNN
F 3 "" H 7450 1600 50  0001 C CNN
	1    7450 1600
	1    0    0    -1  
$EndComp
$Comp
L power:-12V #PWR053
U 1 1 5D6A7DFE
P 7450 1900
F 0 "#PWR053" H 7450 2000 50  0001 C CNN
F 1 "-12V" H 7465 2073 50  0000 C CNN
F 2 "" H 7450 1900 50  0001 C CNN
F 3 "" H 7450 1900 50  0001 C CNN
	1    7450 1900
	-1   0    0    1   
$EndComp
Text Label 7600 1750 0    60   ~ 0
OFF1
$Comp
L Amplifier_Operational:TL074 U6
U 3 1 5D6C2534
P 8450 4800
F 0 "U6" H 8500 4650 50  0000 C CNN
F 1 "TL074" H 8400 4800 50  0000 C CNN
F 2 "Package_SO:SOIC-14_3.9x8.7mm_P1.27mm" H 8400 4900 50  0001 C CNN
F 3 "http://www.ti.com/lit/ds/symlink/tl071.pdf" H 8500 5000 50  0001 C CNN
	3    8450 4800
	1    0    0    1   
$EndComp
$Comp
L Device:C C71
U 1 1 5D6C253B
P 7450 4950
F 0 "C71" H 7565 4996 50  0000 L CNN
F 1 "0.1uF" H 7565 4905 50  0000 L CNN
F 2 "Capacitor_SMD:C_0805_2012Metric_Pad1.15x1.40mm_HandSolder" H 7488 4800 50  0001 C CNN
F 3 "~" H 7450 4950 50  0001 C CNN
	1    7450 4950
	1    0    0    -1  
$EndComp
$Comp
L Device:R R70
U 1 1 5D6C2542
P 7850 4700
F 0 "R70" V 7750 4700 50  0000 L CNN
F 1 "100K" V 7850 4600 50  0000 L CNN
F 2 "Resistor_SMD:R_0805_2012Metric_Pad1.15x1.40mm_HandSolder" V 7780 4700 50  0001 C CNN
F 3 "~" H 7850 4700 50  0001 C CNN
	1    7850 4700
	0    1    1    0   
$EndComp
$Comp
L Device:R R71
U 1 1 5D6C2549
P 8500 4400
F 0 "R71" V 8400 4350 50  0000 L CNN
F 1 "200K" V 8500 4300 50  0000 L CNN
F 2 "Resistor_SMD:R_0805_2012Metric_Pad1.15x1.40mm_HandSolder" V 8430 4400 50  0001 C CNN
F 3 "~" H 8500 4400 50  0001 C CNN
	1    8500 4400
	0    1    1    0   
$EndComp
$Comp
L power:GND #PWR049
U 1 1 5D6C2550
P 7200 5200
F 0 "#PWR049" H 7200 4950 50  0001 C CNN
F 1 "GND" H 7205 5027 50  0000 C CNN
F 2 "" H 7200 5200 50  0001 C CNN
F 3 "" H 7200 5200 50  0001 C CNN
	1    7200 5200
	1    0    0    -1  
$EndComp
Wire Wire Line
	7450 4700 7700 4700
Wire Wire Line
	7450 4700 7450 4800
Wire Wire Line
	7450 5100 7450 5200
Wire Wire Line
	8150 4900 8150 5200
Wire Wire Line
	8000 4700 8100 4700
Wire Wire Line
	8350 4400 8100 4400
Wire Wire Line
	8100 4400 8100 4700
Connection ~ 8100 4700
Wire Wire Line
	8100 4700 8150 4700
Text Label 7200 4700 2    60   ~ 0
VO2
Wire Wire Line
	7450 5200 8150 5200
Wire Wire Line
	7450 5200 7200 5200
Connection ~ 7450 5200
Connection ~ 7450 4700
$Comp
L Device:R R72
U 1 1 5D6C2566
P 9000 4800
F 0 "R72" V 8900 4800 50  0000 L CNN
F 1 "100K" V 9000 4700 50  0000 L CNN
F 2 "Resistor_SMD:R_0805_2012Metric_Pad1.15x1.40mm_HandSolder" V 8930 4800 50  0001 C CNN
F 3 "~" H 9000 4800 50  0001 C CNN
	1    9000 4800
	0    1    1    0   
$EndComp
$Comp
L Device:R R75
U 1 1 5D6C256D
P 9600 4550
F 0 "R75" V 9500 4500 50  0000 L CNN
F 1 "100K" V 9600 4450 50  0000 L CNN
F 2 "Resistor_SMD:R_0805_2012Metric_Pad1.15x1.40mm_HandSolder" V 9530 4550 50  0001 C CNN
F 3 "~" H 9600 4550 50  0001 C CNN
	1    9600 4550
	0    1    1    0   
$EndComp
$Comp
L Device:R R74
U 1 1 5D6C2574
P 9200 4350
F 0 "R74" V 9100 4300 50  0000 L CNN
F 1 "100K" V 9200 4250 50  0000 L CNN
F 2 "Resistor_SMD:R_0805_2012Metric_Pad1.15x1.40mm_HandSolder" V 9130 4350 50  0001 C CNN
F 3 "~" H 9200 4350 50  0001 C CNN
	1    9200 4350
	-1   0    0    1   
$EndComp
$Comp
L power:VDD #PWR061
U 1 1 5D6C257B
P 9200 4200
F 0 "#PWR061" H 9200 4050 50  0001 C CNN
F 1 "VDD" H 9217 4373 50  0000 C CNN
F 2 "" H 9200 4200 50  0001 C CNN
F 3 "" H 9200 4200 50  0001 C CNN
	1    9200 4200
	1    0    0    -1  
$EndComp
Wire Wire Line
	9200 4800 9250 4800
Wire Wire Line
	9150 4800 9200 4800
Connection ~ 9200 4800
Wire Wire Line
	8850 4800 8800 4800
Wire Wire Line
	8150 5200 9250 5200
Wire Wire Line
	9250 5200 9250 5000
Connection ~ 8150 5200
Wire Wire Line
	9450 4550 9200 4550
Wire Wire Line
	9200 4550 9200 4800
Wire Wire Line
	9200 4500 9200 4550
Connection ~ 9200 4550
Wire Wire Line
	8650 4400 8800 4400
Wire Wire Line
	8800 4400 8800 4800
Connection ~ 8800 4800
Wire Wire Line
	8800 4800 8750 4800
$Comp
L Device:R R73
U 1 1 5D6C259E
P 9000 4350
F 0 "R73" V 8900 4300 50  0000 L CNN
F 1 "1M" V 9000 4300 50  0000 L CNN
F 2 "Resistor_SMD:R_0805_2012Metric_Pad1.15x1.40mm_HandSolder" V 8930 4350 50  0001 C CNN
F 3 "~" H 9000 4350 50  0001 C CNN
	1    9000 4350
	-1   0    0    1   
$EndComp
Wire Wire Line
	9000 4550 9200 4550
Wire Wire Line
	9750 4550 9900 4550
$Comp
L Amplifier_Operational:TL074 U6
U 4 1 5D6C25BD
P 9550 4900
F 0 "U6" H 9650 4750 50  0000 C CNN
F 1 "TL074" H 9500 4900 50  0000 C CNN
F 2 "Package_SO:SOIC-14_3.9x8.7mm_P1.27mm" H 9500 5000 50  0001 C CNN
F 3 "http://www.ti.com/lit/ds/symlink/tl071.pdf" H 9600 5100 50  0001 C CNN
	4    9550 4900
	1    0    0    1   
$EndComp
Wire Wire Line
	10100 4900 9900 4900
Wire Wire Line
	9900 4550 9900 4900
Connection ~ 9900 4900
Wire Wire Line
	9900 4900 9850 4900
Text Label 9000 4050 1    60   ~ 0
OFF2
Wire Wire Line
	9000 4500 9000 4550
$Comp
L Amplifier_Operational:TL074 U7
U 1 1 5D6C9F9B
P 8450 6750
F 0 "U7" H 8500 6600 50  0000 C CNN
F 1 "TL074" H 8400 6750 50  0000 C CNN
F 2 "Package_SO:SOIC-14_3.9x8.7mm_P1.27mm" H 8400 6850 50  0001 C CNN
F 3 "http://www.ti.com/lit/ds/symlink/tl071.pdf" H 8500 6950 50  0001 C CNN
	1    8450 6750
	1    0    0    1   
$EndComp
$Comp
L Device:C C81
U 1 1 5D6C9FA2
P 7450 6900
F 0 "C81" H 7565 6946 50  0000 L CNN
F 1 "0.1uF" H 7565 6855 50  0000 L CNN
F 2 "Capacitor_SMD:C_0805_2012Metric_Pad1.15x1.40mm_HandSolder" H 7488 6750 50  0001 C CNN
F 3 "~" H 7450 6900 50  0001 C CNN
	1    7450 6900
	1    0    0    -1  
$EndComp
$Comp
L Device:R R80
U 1 1 5D6C9FA9
P 7850 6650
F 0 "R80" V 7750 6650 50  0000 L CNN
F 1 "100K" V 7850 6550 50  0000 L CNN
F 2 "Resistor_SMD:R_0805_2012Metric_Pad1.15x1.40mm_HandSolder" V 7780 6650 50  0001 C CNN
F 3 "~" H 7850 6650 50  0001 C CNN
	1    7850 6650
	0    1    1    0   
$EndComp
$Comp
L Device:R R81
U 1 1 5D6C9FB0
P 8500 6350
F 0 "R81" V 8400 6300 50  0000 L CNN
F 1 "200K" V 8500 6250 50  0000 L CNN
F 2 "Resistor_SMD:R_0805_2012Metric_Pad1.15x1.40mm_HandSolder" V 8430 6350 50  0001 C CNN
F 3 "~" H 8500 6350 50  0001 C CNN
	1    8500 6350
	0    1    1    0   
$EndComp
$Comp
L power:GND #PWR050
U 1 1 5D6C9FB7
P 7200 7150
F 0 "#PWR050" H 7200 6900 50  0001 C CNN
F 1 "GND" H 7205 6977 50  0000 C CNN
F 2 "" H 7200 7150 50  0001 C CNN
F 3 "" H 7200 7150 50  0001 C CNN
	1    7200 7150
	1    0    0    -1  
$EndComp
Wire Wire Line
	7450 6650 7700 6650
Wire Wire Line
	7450 6650 7450 6750
Wire Wire Line
	7450 7050 7450 7150
Wire Wire Line
	8150 6850 8150 7150
Wire Wire Line
	8000 6650 8100 6650
Wire Wire Line
	8350 6350 8100 6350
Wire Wire Line
	8100 6350 8100 6650
Connection ~ 8100 6650
Wire Wire Line
	8100 6650 8150 6650
Text Label 7200 6650 2    60   ~ 0
VO3
Wire Wire Line
	7450 7150 8150 7150
Wire Wire Line
	7450 7150 7200 7150
Connection ~ 7450 7150
Connection ~ 7450 6650
$Comp
L Device:R R82
U 1 1 5D6C9FCD
P 9000 6750
F 0 "R82" V 8900 6750 50  0000 L CNN
F 1 "100K" V 9000 6650 50  0000 L CNN
F 2 "Resistor_SMD:R_0805_2012Metric_Pad1.15x1.40mm_HandSolder" V 8930 6750 50  0001 C CNN
F 3 "~" H 9000 6750 50  0001 C CNN
	1    9000 6750
	0    1    1    0   
$EndComp
$Comp
L Device:R R85
U 1 1 5D6C9FD4
P 9600 6500
F 0 "R85" V 9500 6450 50  0000 L CNN
F 1 "100K" V 9600 6400 50  0000 L CNN
F 2 "Resistor_SMD:R_0805_2012Metric_Pad1.15x1.40mm_HandSolder" V 9530 6500 50  0001 C CNN
F 3 "~" H 9600 6500 50  0001 C CNN
	1    9600 6500
	0    1    1    0   
$EndComp
$Comp
L Device:R R84
U 1 1 5D6C9FDB
P 9200 6300
F 0 "R84" V 9100 6250 50  0000 L CNN
F 1 "100K" V 9200 6200 50  0000 L CNN
F 2 "Resistor_SMD:R_0805_2012Metric_Pad1.15x1.40mm_HandSolder" V 9130 6300 50  0001 C CNN
F 3 "~" H 9200 6300 50  0001 C CNN
	1    9200 6300
	-1   0    0    1   
$EndComp
$Comp
L power:VDD #PWR062
U 1 1 5D6C9FE2
P 9200 6150
F 0 "#PWR062" H 9200 6000 50  0001 C CNN
F 1 "VDD" H 9217 6323 50  0000 C CNN
F 2 "" H 9200 6150 50  0001 C CNN
F 3 "" H 9200 6150 50  0001 C CNN
	1    9200 6150
	1    0    0    -1  
$EndComp
Wire Wire Line
	9200 6750 9250 6750
Wire Wire Line
	9150 6750 9200 6750
Connection ~ 9200 6750
Wire Wire Line
	8850 6750 8800 6750
Wire Wire Line
	8150 7150 9250 7150
Wire Wire Line
	9250 7150 9250 6950
Connection ~ 8150 7150
Wire Wire Line
	9450 6500 9200 6500
Wire Wire Line
	9200 6500 9200 6750
Wire Wire Line
	9200 6450 9200 6500
Connection ~ 9200 6500
Wire Wire Line
	8650 6350 8800 6350
Wire Wire Line
	8800 6350 8800 6750
Connection ~ 8800 6750
Wire Wire Line
	8800 6750 8750 6750
$Comp
L Device:R R83
U 1 1 5D6CA005
P 9000 6300
F 0 "R83" V 8900 6250 50  0000 L CNN
F 1 "1M" V 9000 6250 50  0000 L CNN
F 2 "Resistor_SMD:R_0805_2012Metric_Pad1.15x1.40mm_HandSolder" V 8930 6300 50  0001 C CNN
F 3 "~" H 9000 6300 50  0001 C CNN
	1    9000 6300
	-1   0    0    1   
$EndComp
Wire Wire Line
	9000 6500 9200 6500
Wire Wire Line
	9750 6500 9900 6500
$Comp
L Amplifier_Operational:TL074 U7
U 2 1 5D6CA024
P 9550 6850
F 0 "U7" H 9650 6700 50  0000 C CNN
F 1 "TL074" H 9500 6850 50  0000 C CNN
F 2 "Package_SO:SOIC-14_3.9x8.7mm_P1.27mm" H 9500 6950 50  0001 C CNN
F 3 "http://www.ti.com/lit/ds/symlink/tl071.pdf" H 9600 7050 50  0001 C CNN
	2    9550 6850
	1    0    0    1   
$EndComp
Wire Wire Line
	10150 6850 9900 6850
Wire Wire Line
	9900 6500 9900 6850
Connection ~ 9900 6850
Wire Wire Line
	9900 6850 9850 6850
Text Label 9000 6000 1    60   ~ 0
OFF3
Wire Wire Line
	9000 6450 9000 6500
Wire Wire Line
	9000 6000 9000 6150
$Comp
L power:+12V #PWR066
U 1 1 5D7507EB
P 10450 7350
F 0 "#PWR066" H 10450 7200 50  0001 C CNN
F 1 "+12V" H 10465 7523 50  0000 C CNN
F 2 "" H 10450 7350 50  0001 C CNN
F 3 "" H 10450 7350 50  0001 C CNN
	1    10450 7350
	1    0    0    -1  
$EndComp
$Comp
L power:-12V #PWR067
U 1 1 5D7507F1
P 10450 7950
F 0 "#PWR067" H 10450 8050 50  0001 C CNN
F 1 "-12V" H 10465 8123 50  0000 C CNN
F 2 "" H 10450 7950 50  0001 C CNN
F 3 "" H 10450 7950 50  0001 C CNN
	1    10450 7950
	-1   0    0    1   
$EndComp
$Comp
L Device:C C70
U 1 1 5D7507F7
P 10450 7650
F 0 "C70" H 10200 7750 50  0000 L CNN
F 1 "0.1uF" H 10150 7650 50  0000 L CNN
F 2 "Capacitor_SMD:C_0805_2012Metric_Pad1.15x1.40mm_HandSolder" H 10488 7500 50  0001 C CNN
F 3 "~" H 10450 7650 50  0001 C CNN
	1    10450 7650
	1    0    0    -1  
$EndComp
$Comp
L Amplifier_Operational:TL074 U7
U 3 1 5D75E314
P 8450 8800
F 0 "U7" H 8500 8650 50  0000 C CNN
F 1 "TL074" H 8400 8800 50  0000 C CNN
F 2 "Package_SO:SOIC-14_3.9x8.7mm_P1.27mm" H 8400 8900 50  0001 C CNN
F 3 "http://www.ti.com/lit/ds/symlink/tl071.pdf" H 8500 9000 50  0001 C CNN
	3    8450 8800
	1    0    0    1   
$EndComp
$Comp
L Device:C C91
U 1 1 5D75E31B
P 7450 8950
F 0 "C91" H 7565 8996 50  0000 L CNN
F 1 "0.1uF" H 7565 8905 50  0000 L CNN
F 2 "Capacitor_SMD:C_0805_2012Metric_Pad1.15x1.40mm_HandSolder" H 7488 8800 50  0001 C CNN
F 3 "~" H 7450 8950 50  0001 C CNN
	1    7450 8950
	1    0    0    -1  
$EndComp
$Comp
L Device:R R90
U 1 1 5D75E322
P 7850 8700
F 0 "R90" V 7750 8700 50  0000 L CNN
F 1 "100K" V 7850 8600 50  0000 L CNN
F 2 "Resistor_SMD:R_0805_2012Metric_Pad1.15x1.40mm_HandSolder" V 7780 8700 50  0001 C CNN
F 3 "~" H 7850 8700 50  0001 C CNN
	1    7850 8700
	0    1    1    0   
$EndComp
$Comp
L Device:R R91
U 1 1 5D75E329
P 8500 8400
F 0 "R91" V 8400 8350 50  0000 L CNN
F 1 "200K" V 8500 8300 50  0000 L CNN
F 2 "Resistor_SMD:R_0805_2012Metric_Pad1.15x1.40mm_HandSolder" V 8430 8400 50  0001 C CNN
F 3 "~" H 8500 8400 50  0001 C CNN
	1    8500 8400
	0    1    1    0   
$EndComp
$Comp
L power:GND #PWR051
U 1 1 5D75E330
P 7200 9200
F 0 "#PWR051" H 7200 8950 50  0001 C CNN
F 1 "GND" H 7205 9027 50  0000 C CNN
F 2 "" H 7200 9200 50  0001 C CNN
F 3 "" H 7200 9200 50  0001 C CNN
	1    7200 9200
	1    0    0    -1  
$EndComp
Wire Wire Line
	7450 8700 7700 8700
Wire Wire Line
	7450 8700 7450 8800
Wire Wire Line
	7450 9100 7450 9200
Wire Wire Line
	8150 8900 8150 9200
Wire Wire Line
	8000 8700 8100 8700
Wire Wire Line
	8350 8400 8100 8400
Wire Wire Line
	8100 8400 8100 8700
Connection ~ 8100 8700
Wire Wire Line
	8100 8700 8150 8700
Text Label 7200 8700 2    60   ~ 0
VO4
Wire Wire Line
	7450 9200 8150 9200
Wire Wire Line
	7450 9200 7200 9200
Connection ~ 7450 9200
Connection ~ 7450 8700
$Comp
L Device:R R92
U 1 1 5D75E346
P 9000 8800
F 0 "R92" V 8900 8800 50  0000 L CNN
F 1 "100K" V 9000 8700 50  0000 L CNN
F 2 "Resistor_SMD:R_0805_2012Metric_Pad1.15x1.40mm_HandSolder" V 8930 8800 50  0001 C CNN
F 3 "~" H 9000 8800 50  0001 C CNN
	1    9000 8800
	0    1    1    0   
$EndComp
$Comp
L Device:R R95
U 1 1 5D75E34D
P 9600 8550
F 0 "R95" V 9500 8500 50  0000 L CNN
F 1 "100K" V 9600 8450 50  0000 L CNN
F 2 "Resistor_SMD:R_0805_2012Metric_Pad1.15x1.40mm_HandSolder" V 9530 8550 50  0001 C CNN
F 3 "~" H 9600 8550 50  0001 C CNN
	1    9600 8550
	0    1    1    0   
$EndComp
$Comp
L Device:R R94
U 1 1 5D75E354
P 9200 8350
F 0 "R94" V 9100 8300 50  0000 L CNN
F 1 "100K" V 9200 8250 50  0000 L CNN
F 2 "Resistor_SMD:R_0805_2012Metric_Pad1.15x1.40mm_HandSolder" V 9130 8350 50  0001 C CNN
F 3 "~" H 9200 8350 50  0001 C CNN
	1    9200 8350
	-1   0    0    1   
$EndComp
$Comp
L power:VDD #PWR063
U 1 1 5D75E35B
P 9200 8200
F 0 "#PWR063" H 9200 8050 50  0001 C CNN
F 1 "VDD" H 9217 8373 50  0000 C CNN
F 2 "" H 9200 8200 50  0001 C CNN
F 3 "" H 9200 8200 50  0001 C CNN
	1    9200 8200
	1    0    0    -1  
$EndComp
Wire Wire Line
	9200 8800 9250 8800
Wire Wire Line
	9150 8800 9200 8800
Connection ~ 9200 8800
Wire Wire Line
	8850 8800 8800 8800
Wire Wire Line
	8150 9200 9250 9200
Wire Wire Line
	9250 9200 9250 9000
Connection ~ 8150 9200
Wire Wire Line
	9450 8550 9200 8550
Wire Wire Line
	9200 8550 9200 8800
Wire Wire Line
	9200 8500 9200 8550
Connection ~ 9200 8550
Wire Wire Line
	8650 8400 8800 8400
Wire Wire Line
	8800 8400 8800 8800
Connection ~ 8800 8800
Wire Wire Line
	8800 8800 8750 8800
$Comp
L Device:R R93
U 1 1 5D75E37E
P 9000 8350
F 0 "R93" V 8900 8300 50  0000 L CNN
F 1 "1M" V 9000 8300 50  0000 L CNN
F 2 "Resistor_SMD:R_0805_2012Metric_Pad1.15x1.40mm_HandSolder" V 8930 8350 50  0001 C CNN
F 3 "~" H 9000 8350 50  0001 C CNN
	1    9000 8350
	-1   0    0    1   
$EndComp
Wire Wire Line
	9000 8550 9200 8550
Wire Wire Line
	9750 8550 9900 8550
$Comp
L Amplifier_Operational:TL074 U7
U 4 1 5D75E39D
P 9550 8900
F 0 "U7" H 9650 8750 50  0000 C CNN
F 1 "TL074" H 9500 8900 50  0000 C CNN
F 2 "Package_SO:SOIC-14_3.9x8.7mm_P1.27mm" H 9500 9000 50  0001 C CNN
F 3 "http://www.ti.com/lit/ds/symlink/tl071.pdf" H 9600 9100 50  0001 C CNN
	4    9550 8900
	1    0    0    1   
$EndComp
Wire Wire Line
	10050 8900 9900 8900
Wire Wire Line
	9900 8550 9900 8900
Connection ~ 9900 8900
Wire Wire Line
	9900 8900 9850 8900
Text Label 9000 8050 1    60   ~ 0
OFF4
Wire Wire Line
	9000 8500 9000 8550
Wire Wire Line
	9000 8050 9000 8200
$Comp
L Device:R_POT_TRIM RV70
U 1 1 5D7A4269
P 7450 4200
F 0 "RV70" V 7350 4250 50  0000 R CNN
F 1 "50K" V 7450 4250 50  0000 R CNN
F 2 "mod:Piher-PT10" H 7450 4200 50  0001 C CNN
F 3 "~" H 7450 4200 50  0001 C CNN
	1    7450 4200
	1    0    0    1   
$EndComp
$Comp
L power:+12V #PWR054
U 1 1 5D7A4270
P 7450 4050
F 0 "#PWR054" H 7450 3900 50  0001 C CNN
F 1 "+12V" H 7465 4223 50  0000 C CNN
F 2 "" H 7450 4050 50  0001 C CNN
F 3 "" H 7450 4050 50  0001 C CNN
	1    7450 4050
	1    0    0    -1  
$EndComp
$Comp
L power:-12V #PWR055
U 1 1 5D7A4276
P 7450 4350
F 0 "#PWR055" H 7450 4450 50  0001 C CNN
F 1 "-12V" H 7465 4523 50  0000 C CNN
F 2 "" H 7450 4350 50  0001 C CNN
F 3 "" H 7450 4350 50  0001 C CNN
	1    7450 4350
	-1   0    0    1   
$EndComp
Text Label 7600 4200 0    60   ~ 0
OFF2
$Comp
L Device:R_POT_TRIM RV80
U 1 1 5D7D2277
P 7450 6150
F 0 "RV80" V 7350 6200 50  0000 R CNN
F 1 "50K" V 7450 6200 50  0000 R CNN
F 2 "mod:Piher-PT10" H 7450 6150 50  0001 C CNN
F 3 "~" H 7450 6150 50  0001 C CNN
	1    7450 6150
	1    0    0    1   
$EndComp
$Comp
L power:+12V #PWR056
U 1 1 5D7D227E
P 7450 6000
F 0 "#PWR056" H 7450 5850 50  0001 C CNN
F 1 "+12V" H 7465 6173 50  0000 C CNN
F 2 "" H 7450 6000 50  0001 C CNN
F 3 "" H 7450 6000 50  0001 C CNN
	1    7450 6000
	1    0    0    -1  
$EndComp
$Comp
L power:-12V #PWR057
U 1 1 5D7D2284
P 7450 6300
F 0 "#PWR057" H 7450 6400 50  0001 C CNN
F 1 "-12V" H 7465 6473 50  0000 C CNN
F 2 "" H 7450 6300 50  0001 C CNN
F 3 "" H 7450 6300 50  0001 C CNN
	1    7450 6300
	-1   0    0    1   
$EndComp
Text Label 7600 6150 0    60   ~ 0
OFF3
$Comp
L Device:R_POT_TRIM RV90
U 1 1 5D7E17D9
P 7450 8200
F 0 "RV90" V 7350 8250 50  0000 R CNN
F 1 "50K" V 7450 8250 50  0000 R CNN
F 2 "mod:Piher-PT10" H 7450 8200 50  0001 C CNN
F 3 "~" H 7450 8200 50  0001 C CNN
	1    7450 8200
	1    0    0    1   
$EndComp
$Comp
L power:+12V #PWR058
U 1 1 5D7E17E0
P 7450 8050
F 0 "#PWR058" H 7450 7900 50  0001 C CNN
F 1 "+12V" H 7465 8223 50  0000 C CNN
F 2 "" H 7450 8050 50  0001 C CNN
F 3 "" H 7450 8050 50  0001 C CNN
	1    7450 8050
	1    0    0    -1  
$EndComp
$Comp
L power:-12V #PWR059
U 1 1 5D7E17E6
P 7450 8350
F 0 "#PWR059" H 7450 8450 50  0001 C CNN
F 1 "-12V" H 7465 8523 50  0000 C CNN
F 2 "" H 7450 8350 50  0001 C CNN
F 3 "" H 7450 8350 50  0001 C CNN
	1    7450 8350
	-1   0    0    1   
$EndComp
Text Label 7600 8200 0    60   ~ 0
OFF4
Wire Notes Line
	6400 4300 1650 4300
Wire Notes Line
	6500 9600 6500 1100
$Comp
L Connector:Conn_01x03_Male J4
U 1 1 5DAB908F
P 6050 8900
F 0 "J4" H 6022 8830 50  0000 R CNN
F 1 "WS2812" H 6300 9100 50  0000 R CNN
F 2 "Connector_PinHeader_2.54mm:PinHeader_1x03_P2.54mm_Vertical" H 6050 8900 50  0001 C CNN
F 3 "~" H 6050 8900 50  0001 C CNN
	1    6050 8900
	-1   0    0    1   
$EndComp
Wire Notes Line
	5400 8300 5400 9600
Wire Notes Line
	5400 9600 6400 9600
Wire Notes Line
	6400 9600 6400 8300
Wire Notes Line
	6400 8300 5400 8300
Text Notes 5450 8450 0    60   ~ 0
LED (optional)
Text Label 4200 3200 0    60   ~ 0
INIT
Text Label 5850 8900 2    60   ~ 0
PWM
Text Label 5850 9000 2    60   ~ 0
GND
Text Label 2300 1500 0    60   ~ 0
VDD
Text Label 5850 8800 2    60   ~ 0
VDD
Text Label 4200 1500 0    60   ~ 0
CSA
Text Label 4200 1600 0    60   ~ 0
CSB
$Comp
L power:GND #PWR0101
U 1 1 5DF3C876
P 2400 7800
F 0 "#PWR0101" H 2400 7550 50  0001 C CNN
F 1 "GND" H 2405 7627 50  0000 C CNN
F 2 "" H 2400 7800 50  0001 C CNN
F 3 "" H 2400 7800 50  0001 C CNN
	1    2400 7800
	1    0    0    -1  
$EndComp
$Comp
L power:VDD #PWR0102
U 1 1 5DF4093C
P 2600 7800
F 0 "#PWR0102" H 2600 7650 50  0001 C CNN
F 1 "VDD" H 2617 7973 50  0000 C CNN
F 2 "" H 2600 7800 50  0001 C CNN
F 3 "" H 2600 7800 50  0001 C CNN
	1    2600 7800
	0    1    1    0   
$EndComp
$Comp
L power:VDD #PWR0103
U 1 1 5DF4187B
P 2600 9300
F 0 "#PWR0103" H 2600 9150 50  0001 C CNN
F 1 "VDD" H 2617 9473 50  0000 C CNN
F 2 "" H 2600 9300 50  0001 C CNN
F 3 "" H 2600 9300 50  0001 C CNN
	1    2600 9300
	0    1    1    0   
$EndComp
Wire Wire Line
	3000 3450 3000 3600
Connection ~ 3000 3600
$Comp
L power:PWR_FLAG #FLG0101
U 1 1 5E01C5EA
P 3750 5500
F 0 "#FLG0101" H 3750 5575 50  0001 C CNN
F 1 "PWR_FLAG" H 3750 5674 50  0000 C CNN
F 2 "" H 3750 5500 50  0001 C CNN
F 3 "~" H 3750 5500 50  0001 C CNN
	1    3750 5500
	0    -1   -1   0   
$EndComp
Wire Wire Line
	9000 1700 9000 1800
Wire Wire Line
	9000 4050 9000 4200
NoConn ~ 2850 5500
NoConn ~ 2850 5600
NoConn ~ 2350 5600
NoConn ~ 2350 5500
Text Notes 2400 6350 0    60   ~ 0
Eurorack
Text Label 2550 3600 0    60   ~ 0
GND
Text Label 10100 2500 0    60   ~ 0
LFO1
Text Label 10100 4900 0    60   ~ 0
LFO2
Text Label 10150 6850 0    60   ~ 0
LFO3
Text Label 10050 8900 0    60   ~ 0
LFO4
Text Notes 2450 3350 0    60   ~ 0
HC49-U
Text Label 4750 7500 0    60   ~ 0
MIDI5
Text Label 4400 7500 2    60   ~ 0
MIDI4
$Comp
L Connector:Conn_01x02_Male J3
U 1 1 5D9612E1
P 4500 7050
F 0 "J3" V 4560 6862 50  0000 R CNN
F 1 "MIDI" V 4651 6862 50  0000 R CNN
F 2 "Connector_PinHeader_2.54mm:PinHeader_1x02_P2.54mm_Vertical" H 4500 7050 50  0001 C CNN
F 3 "~" H 4500 7050 50  0001 C CNN
	1    4500 7050
	0    -1   1    0   
$EndComp
Wire Wire Line
	4150 7250 4500 7250
Wire Wire Line
	4600 7250 5050 7250
Wire Wire Line
	4600 7250 4600 7500
Wire Wire Line
	4600 7500 4750 7500
Connection ~ 4600 7250
Wire Wire Line
	4500 7250 4500 7500
Wire Wire Line
	4500 7500 4400 7500
Connection ~ 4500 7250
$Comp
L Mechanical:MountingHole_Pad H1
U 1 1 5D36BF57
P 14600 9600
F 0 "H1" H 14700 9651 50  0000 L CNN
F 1 "M3" H 14700 9560 50  0000 L CNN
F 2 "MountingHole:MountingHole_3.2mm_M3_Pad" H 14600 9600 50  0001 C CNN
F 3 "~" H 14600 9600 50  0001 C CNN
	1    14600 9600
	1    0    0    -1  
$EndComp
NoConn ~ 14600 9700
$Comp
L Mechanical:MountingHole_Pad H2
U 1 1 5D380E24
P 14900 9600
F 0 "H2" H 15000 9651 50  0000 L CNN
F 1 "M3" H 15000 9560 50  0000 L CNN
F 2 "MountingHole:MountingHole_3.2mm_M3_Pad" H 14900 9600 50  0001 C CNN
F 3 "~" H 14900 9600 50  0001 C CNN
	1    14900 9600
	1    0    0    -1  
$EndComp
NoConn ~ 14900 9700
$Comp
L Mechanical:MountingHole_Pad H3
U 1 1 5D3950BD
P 15200 9600
F 0 "H3" H 15300 9651 50  0000 L CNN
F 1 "M3" H 15300 9560 50  0000 L CNN
F 2 "MountingHole:MountingHole_3.2mm_M3_Pad" H 15200 9600 50  0001 C CNN
F 3 "~" H 15200 9600 50  0001 C CNN
	1    15200 9600
	1    0    0    -1  
$EndComp
NoConn ~ 15200 9700
$Comp
L Mechanical:MountingHole_Pad H4
U 1 1 5D3B3A96
P 15500 9600
F 0 "H4" H 15600 9651 50  0000 L CNN
F 1 "M3" H 15600 9560 50  0000 L CNN
F 2 "MountingHole:MountingHole_3.2mm_M3_Pad" H 15500 9600 50  0001 C CNN
F 3 "~" H 15500 9600 50  0001 C CNN
	1    15500 9600
	1    0    0    -1  
$EndComp
NoConn ~ 15500 9700
Text Notes 14550 9450 0    60   ~ 0
use M2.5 spacer standoffs
Text Notes 5500 2900 0    60   ~ 0
SWITCHes
Text Notes 5600 3850 0    60   ~ 0
POTS
Text Notes 5600 2000 0    60   ~ 0
LFOs
Wire Wire Line
	5450 1450 5950 1450
Wire Wire Line
	5450 1550 5950 1550
Wire Wire Line
	5450 1650 5950 1650
Wire Wire Line
	5450 1750 5950 1750
Wire Wire Line
	5450 1850 5950 1850
Text Label 5950 1550 0    60   ~ 0
LFO3
Text Label 5950 1450 0    60   ~ 0
LFO4
Text Label 5950 1650 0    60   ~ 0
LFO2
Text Label 5950 1750 0    60   ~ 0
LFO1
Text Label 5950 1850 0    60   ~ 0
GND
$Comp
L Connector_Generic:Conn_02x05_Odd_Even J9
U 1 1 5D84F0D1
P 5650 1650
F 0 "J9" H 5700 1225 50  0000 C CNN
F 1 "2x5" H 5700 1316 50  0000 C CNN
F 2 "Connector_PinHeader_2.54mm:PinHeader_2x05_P2.54mm_Vertical" H 5650 1650 50  0001 C CNN
F 3 "~" H 5650 1650 50  0001 C CNN
	1    5650 1650
	1    0    0    1   
$EndComp
Text Label 5450 3300 2    60   ~ 0
VDD
Text Label 5950 3700 0    60   ~ 0
GND
Text Label 5950 2750 0    60   ~ 0
GND
Text Label 5450 3700 2    60   ~ 0
GND
Text Label 5950 3300 0    60   ~ 0
VDD
$Comp
L Connector_Generic:Conn_02x05_Odd_Even J7
U 1 1 5D6E87B2
P 5650 3500
F 0 "J7" H 5700 3075 50  0000 C CNN
F 1 "2x5" H 5700 3166 50  0000 C CNN
F 2 "Connector_PinHeader_2.54mm:PinHeader_2x05_P2.54mm_Vertical" H 5650 3500 50  0001 C CNN
F 3 "~" H 5650 3500 50  0001 C CNN
	1    5650 3500
	1    0    0    1   
$EndComp
Text Label 5450 2750 2    60   ~ 0
GND
Text Label 5450 2350 2    60   ~ 0
VDD
Text Label 5950 2350 0    60   ~ 0
S3
Text Label 5450 2450 2    60   ~ 0
S2
Text Label 5950 3600 0    60   ~ 0
P2
Text Label 5450 3600 2    60   ~ 0
P1
Text Label 5950 3500 0    60   ~ 0
P3
Text Label 5450 3500 2    60   ~ 0
P0
Text Label 5950 3400 0    60   ~ 0
P4
Text Label 5450 3400 2    60   ~ 0
P5
Text Label 5450 2650 2    60   ~ 0
INIT
Text Label 5950 2650 0    60   ~ 0
CLK
Text Label 5950 2550 0    60   ~ 0
S4
Text Label 5450 2550 2    60   ~ 0
S1
Text Label 5950 2450 0    60   ~ 0
S5
$Comp
L Connector_Generic:Conn_02x05_Odd_Even J8
U 1 1 5D623757
P 5650 2550
F 0 "J8" H 5700 2125 50  0000 C CNN
F 1 "2x5" H 5700 2216 50  0000 C CNN
F 2 "Connector_PinHeader_2.54mm:PinHeader_2x05_P2.54mm_Vertical" H 5650 2550 50  0001 C CNN
F 3 "~" H 5650 2550 50  0001 C CNN
	1    5650 2550
	1    0    0    1   
$EndComp
Text Notes 5500 4200 0    60   ~ 0
IDE PATA HEADERS
Wire Notes Line
	6500 1100 11150 1100
Wire Notes Line
	11150 1100 11150 9600
Wire Notes Line
	11150 9600 6500 9600
Wire Notes Line
	5000 1100 5000 4250
Wire Notes Line
	5000 4250 6400 4250
Wire Notes Line
	6400 4250 6400 1100
Wire Notes Line
	6400 1100 5000 1100
Text Label 4450 2450 0    60   ~ 0
S5
Text Label 4200 3000 0    60   ~ 0
TX
Text Notes 4350 3100 0    50   ~ 0
(INT0)
Text Notes 4350 3200 0    50   ~ 0
(INT1)
Text Label 4200 1700 0    60   ~ 0
PWM
Wire Wire Line
	4200 1900 4400 1900
Text Notes 4500 1900 3    50   ~ 0
(input only)
Wire Wire Line
	4400 1900 4400 2450
Wire Wire Line
	4400 2450 4450 2450
Wire Notes Line
	1650 6500 1650 9600
Wire Notes Line
	4950 4250 4950 1100
Wire Notes Line
	1650 1100 4950 1100
$Comp
L Device:C C40
U 1 1 5D4BB3B6
P 5250 7850
F 0 "C40" H 5365 7896 50  0000 L CNN
F 1 "0.1uF" H 5365 7805 50  0000 L CNN
F 2 "Capacitor_SMD:C_0805_2012Metric_Pad1.15x1.40mm_HandSolder" H 5288 7700 50  0001 C CNN
F 3 "~" H 5250 7850 50  0001 C CNN
	1    5250 7850
	1    0    0    -1  
$EndComp
$Comp
L power:GND #PWR0104
U 1 1 5D4BB3BD
P 5250 8000
F 0 "#PWR0104" H 5250 7750 50  0001 C CNN
F 1 "GND" H 5255 7827 50  0000 C CNN
F 2 "" H 5250 8000 50  0001 C CNN
F 3 "" H 5250 8000 50  0001 C CNN
	1    5250 8000
	1    0    0    -1  
$EndComp
$Comp
L power:VDD #PWR0105
U 1 1 5D4BB3C3
P 5250 7700
F 0 "#PWR0105" H 5250 7550 50  0001 C CNN
F 1 "VDD" H 5267 7873 50  0000 C CNN
F 2 "" H 5250 7700 50  0001 C CNN
F 3 "" H 5250 7700 50  0001 C CNN
	1    5250 7700
	1    0    0    -1  
$EndComp
$Comp
L Connector:TestPoint TP12
U 1 1 5D3EA06C
P 10050 2150
F 0 "TP12" H 10100 2300 50  0000 L CNN
F 1 "TP" H 10100 2200 50  0000 L CNN
F 2 "mod:TestPoint-single" H 10250 2150 50  0001 C CNN
F 3 "~" H 10250 2150 50  0001 C CNN
	1    10050 2150
	1    0    0    -1  
$EndComp
Wire Wire Line
	9900 2150 10050 2150
Connection ~ 9900 2150
$Comp
L Connector:TestPoint TP22
U 1 1 5D3F6CCC
P 10100 4550
F 0 "TP22" H 10150 4700 50  0000 L CNN
F 1 "TP" H 10150 4600 50  0000 L CNN
F 2 "mod:TestPoint-single" H 10300 4550 50  0001 C CNN
F 3 "~" H 10300 4550 50  0001 C CNN
	1    10100 4550
	1    0    0    -1  
$EndComp
Wire Wire Line
	9900 4550 10100 4550
Connection ~ 9900 4550
$Comp
L Connector:TestPoint TP32
U 1 1 5D40C9F8
P 10050 6500
F 0 "TP32" H 10100 6650 50  0000 L CNN
F 1 "TP" H 10100 6550 50  0000 L CNN
F 2 "mod:TestPoint-single" H 10250 6500 50  0001 C CNN
F 3 "~" H 10250 6500 50  0001 C CNN
	1    10050 6500
	1    0    0    -1  
$EndComp
Wire Wire Line
	9900 6500 10050 6500
Connection ~ 9900 6500
$Comp
L Connector:TestPoint TP42
U 1 1 5D417D56
P 10100 8550
F 0 "TP42" H 10150 8700 50  0000 L CNN
F 1 "TP" H 10150 8600 50  0000 L CNN
F 2 "mod:TestPoint-single" H 10300 8550 50  0001 C CNN
F 3 "~" H 10300 8550 50  0001 C CNN
	1    10100 8550
	1    0    0    -1  
$EndComp
Wire Wire Line
	10100 8550 9900 8550
Connection ~ 9900 8550
$Comp
L Connector:TestPoint TP11
U 1 1 5D42ACAC
P 6800 2300
F 0 "TP11" H 6850 2450 50  0000 L CNN
F 1 "TP" H 6850 2350 50  0000 L CNN
F 2 "mod:TestPoint-single" H 7000 2300 50  0001 C CNN
F 3 "~" H 7000 2300 50  0001 C CNN
	1    6800 2300
	1    0    0    -1  
$EndComp
Wire Wire Line
	6800 2300 7450 2300
$Comp
L Connector:TestPoint TP21
U 1 1 5D4365C8
P 6850 4700
F 0 "TP21" H 6900 4850 50  0000 L CNN
F 1 "TP" H 6900 4750 50  0000 L CNN
F 2 "mod:TestPoint-single" H 7050 4700 50  0001 C CNN
F 3 "~" H 7050 4700 50  0001 C CNN
	1    6850 4700
	1    0    0    -1  
$EndComp
Wire Wire Line
	6850 4700 7450 4700
$Comp
L Connector:TestPoint TP31
U 1 1 5D4421D4
P 6850 6650
F 0 "TP31" H 6900 6800 50  0000 L CNN
F 1 "TP" H 6900 6700 50  0000 L CNN
F 2 "mod:TestPoint-single" H 7050 6650 50  0001 C CNN
F 3 "~" H 7050 6650 50  0001 C CNN
	1    6850 6650
	1    0    0    -1  
$EndComp
Wire Wire Line
	6850 6650 7450 6650
$Comp
L Connector:TestPoint TP41
U 1 1 5D459A92
P 6850 8700
F 0 "TP41" H 6900 8850 50  0000 L CNN
F 1 "TP" H 6900 8750 50  0000 L CNN
F 2 "mod:TestPoint-single" H 7050 8700 50  0001 C CNN
F 3 "~" H 7050 8700 50  0001 C CNN
	1    6850 8700
	1    0    0    -1  
$EndComp
Wire Wire Line
	6850 8700 7450 8700
$Comp
L Connector:TestPoint TP01
U 1 1 5D466342
P 6850 2800
F 0 "TP01" H 6900 2950 50  0000 L CNN
F 1 "TP" H 6900 2850 50  0000 L CNN
F 2 "Connector_PinHeader_2.54mm:PinHeader_1x01_P2.54mm_Vertical" H 7050 2800 50  0001 C CNN
F 3 "~" H 7050 2800 50  0001 C CNN
	1    6850 2800
	-1   0    0    1   
$EndComp
Wire Wire Line
	6850 2800 7200 2800
Connection ~ 7200 2800
$Comp
L Connector:TestPoint TP02
U 1 1 5D473757
P 10200 2800
F 0 "TP02" H 10250 2950 50  0000 L CNN
F 1 "TP" H 10250 2850 50  0000 L CNN
F 2 "Connector_PinHeader_2.54mm:PinHeader_1x01_P2.54mm_Vertical" H 10400 2800 50  0001 C CNN
F 3 "~" H 10400 2800 50  0001 C CNN
	1    10200 2800
	-1   0    0    1   
$EndComp
Wire Wire Line
	10200 2800 9250 2800
Connection ~ 9250 2800
Connection ~ 2150 2400
Connection ~ 2150 2100
$Comp
L Device:C C01
U 1 1 5D330318
P 2150 2250
F 0 "C01" H 2300 2250 50  0000 C CNN
F 1 "0.1uF" H 2250 2150 50  0000 C CNN
F 2 "Capacitor_SMD:C_0805_2012Metric_Pad1.15x1.40mm_HandSolder" H 2188 2100 50  0001 C CNN
F 3 "~" H 2150 2250 50  0001 C CNN
	1    2150 2250
	1    0    0    -1  
$EndComp
$Comp
L Amplifier_Operational:TL074 U6
U 5 1 5D413BAB
P 10800 3600
F 0 "U6" H 10850 3450 50  0000 C CNN
F 1 "TL074" H 10750 3600 50  0000 C CNN
F 2 "Package_SO:SOIC-14_3.9x8.7mm_P1.27mm" H 10750 3700 50  0001 C CNN
F 3 "http://www.ti.com/lit/ds/symlink/tl071.pdf" H 10850 3800 50  0001 C CNN
	5    10800 3600
	-1   0    0    -1  
$EndComp
Wire Wire Line
	10900 3900 10500 3900
Wire Wire Line
	10500 3750 10500 3900
Connection ~ 10500 3900
Wire Wire Line
	10500 3300 10500 3450
Connection ~ 10500 3300
Wire Wire Line
	10500 3300 10900 3300
$Comp
L Amplifier_Operational:TL074 U7
U 5 1 5D49F7C5
P 10750 7650
F 0 "U7" H 10800 7500 50  0000 C CNN
F 1 "TL074" H 10700 7650 50  0000 C CNN
F 2 "Package_SO:SOIC-14_3.9x8.7mm_P1.27mm" H 10700 7750 50  0001 C CNN
F 3 "http://www.ti.com/lit/ds/symlink/tl071.pdf" H 10800 7850 50  0001 C CNN
	5    10750 7650
	-1   0    0    -1  
$EndComp
Wire Wire Line
	10850 7350 10450 7350
Wire Wire Line
	10450 7350 10450 7500
Connection ~ 10450 7350
Wire Wire Line
	10850 7950 10450 7950
Wire Wire Line
	10450 7950 10450 7800
Connection ~ 10450 7950
Text Notes 6550 1250 0    60   ~ 0
ANALOG
Text Notes 4050 6750 0    60   ~ 0
optional MIDI clock\n+ CC support\n
Text Notes 4400 1700 0    50   ~ 0
(SS) output only
Text Notes 750  9500 0    118  ~ 0
!!!!! SHDN low means \nDAC is shutdown !!!!
Text Notes 2750 1350 0    50   ~ 0
[*] Warning: PB2 (SS) should have been used for CSA\nthis would have made another bidirectional pin availabe
Text Notes 4400 1500 0    50   ~ 0
[*]
$EndSCHEMATC
