M48
;DRILL file {KiCad 5.0.2+dfsg1-1} date Tue 30 Jul 2019 09:42:51 PM EDT
;FORMAT={-:-/ absolute / inch / decimal}
FMAT,2
INCH,TZ
T1C0.0157
T2C0.0197
T3C0.0236
T4C0.0315
T5C0.0394
T6C0.0433
T7C0.0512
T8C0.1260
%
G90
G05
T1
X3.285Y-4.83
X3.295Y-2.045
X3.3Y-2.25
X3.3087Y-2.61
X3.315Y-3.06
X3.315Y-3.4
X3.315Y-5.655
X3.35Y-4.44
X3.3744Y-3.1553
X3.3744Y-3.4644
X3.375Y-3.86
X3.385Y-2.99
X3.405Y-3.525
X3.415Y-3.16
X3.43Y-2.57
X3.435Y-2.5035
X3.48Y-4.92
X3.51Y-2.045
X3.6Y-2.225
X3.605Y-3.625
X3.63Y-4.025
X3.655Y-4.235
X3.69Y-3.05
X3.7175Y-2.38
X3.735Y-3.54
X3.75Y-3.33
X3.78Y-4.35
X3.79Y-2.22
X3.8Y-2.665
X3.805Y-3.02
X3.85Y-3.875
X3.86Y-3.2425
X3.915Y-2.235
X3.92Y-4.675
X3.95Y-3.97
X3.955Y-2.8
X3.965Y-5.955
X3.97Y-2.345
X3.99Y-4.275
X3.99Y-4.825
X3.995Y-4.08
X4.02Y-4.005
X4.04Y-4.515
X4.045Y-4.565
X4.055Y-4.43
X4.065Y-2.665
X4.085Y-2.225
X4.085Y-4.785
X4.095Y-3.9075
X4.125Y-2.31
X4.13Y-4.605
X4.145Y-4.565
X4.15Y-2.185
X4.1525Y-2.015
X4.19Y-3.055
X4.195Y-2.69
X4.2Y-4.38
X4.205Y-2.335
X4.205Y-2.87
X4.24Y-4.88
X4.25Y-2.185
X4.26Y-4.57
X4.27Y-4.515
X4.28Y-2.37
X4.285Y-2.305
X4.325Y-2.275
X4.34Y-4.26
X4.4Y-2.63
X4.405Y-2.92
X4.465Y-2.27
X4.475Y-3.55
X4.495Y-2.805
X4.495Y-4.325
X4.495Y-4.815
X4.5Y-3.965
X4.535Y-5.64
X4.57Y-2.58
X4.605Y-4.18
X4.61Y-3.905
X4.625Y-4.395
X4.6351Y-4.65
X4.64Y-2.3
X4.645Y-3.705
X4.675Y-3.54
X4.69Y-2.08
X4.7Y-2.25
X4.705Y-2.84
X4.71Y-4.79
X4.72Y-2.525
X4.745Y-4.04
X4.745Y-4.47
X4.755Y-4.515
X4.765Y-3.99
X4.8Y-4.635
X4.8Y-4.805
X4.8026Y-4.53
X4.84Y-4.5981
X4.885Y-4.37
X4.905Y-4.005
X4.91Y-4.235
X4.965Y-4.665
X4.98Y-3.56
X5.015Y-3.855
T2
X3.74Y-2.535
X3.875Y-2.5325
X3.975Y-5.13
X4.0286Y-2.7011
X4.405Y-4.335
X4.64Y-4.27
T3
X3.825Y-5.2462
X4.05Y-4.91
X4.445Y-4.94
X4.9Y-4.82
X5.0835Y-4.28
T4
X4.05Y-2.875
X4.05Y-2.975
X4.05Y-3.075
X4.05Y-3.175
X4.05Y-3.275
X4.05Y-3.375
X4.05Y-3.475
X4.35Y-2.875
X4.35Y-2.975
X4.35Y-3.075
X4.35Y-3.175
X4.35Y-3.275
X4.35Y-3.375
X4.35Y-3.475
X4.625Y-2.875
X4.625Y-2.975
X4.625Y-3.075
X4.625Y-3.175
X4.625Y-3.275
X4.625Y-3.375
X4.625Y-3.475
X4.925Y-2.875
X4.925Y-2.975
X4.925Y-3.075
X4.925Y-3.175
X4.925Y-3.275
X4.925Y-3.375
X4.925Y-3.475
X3.6Y-3.175
X3.6Y-3.475
X3.7Y-3.175
X3.7Y-3.475
X3.8Y-3.175
X3.8Y-3.475
X3.9Y-3.175
X3.9Y-3.475
X3.3Y-2.15
X3.3Y-2.45
X3.4Y-2.15
X3.4Y-2.45
X3.5Y-2.15
X3.5Y-2.45
X3.6Y-2.15
X3.6Y-2.45
X3.7Y-2.15
X3.7Y-2.45
X3.8Y-2.15
X3.8Y-2.45
X3.9Y-2.15
X3.9Y-2.45
X4.Y-2.15
X4.Y-2.45
X4.1Y-2.15
X4.1Y-2.45
X4.2Y-2.15
X4.2Y-2.45
X4.3Y-2.15
X4.3Y-2.45
X4.4Y-2.15
X4.4Y-2.45
X4.5Y-2.15
X4.5Y-2.45
X4.6Y-2.15
X4.6Y-2.45
X3.6863Y-5.475
X3.765Y-5.475
X4.3913Y-5.475
X4.47Y-5.475
X4.635Y-5.475
X4.7137Y-5.475
X3.6829Y-1.85
X3.875Y-1.85
T5
X4.9Y-2.425
X4.9Y-2.525
X4.9Y-2.625
X3.86Y-5.025
X5.05Y-3.275
X4.225Y-5.025
X3.9Y-3.
X3.325Y-3.2
X3.325Y-3.3
X3.425Y-4.375
X3.425Y-4.475
X3.425Y-4.575
X3.425Y-4.675
X3.425Y-4.775
X3.525Y-4.375
X3.525Y-4.475
X3.525Y-4.575
X3.525Y-4.675
X3.525Y-4.775
X5.05Y-2.875
X4.925Y-5.025
X3.425Y-5.025
X3.425Y-5.125
X3.425Y-5.225
X3.425Y-5.325
X3.425Y-5.425
X3.525Y-5.025
X3.525Y-5.125
X3.525Y-5.225
X3.525Y-5.325
X3.525Y-5.425
X3.7Y-5.025
X4.9Y-2.15
X4.9Y-2.25
X3.51Y-2.6
X3.51Y-2.7
X3.51Y-2.8
X3.51Y-2.9
X3.51Y-3.
X3.61Y-2.6
X3.61Y-2.7
X3.61Y-2.8
X3.61Y-2.9
X3.61Y-3.
X4.475Y-2.875
X4.475Y-3.275
X4.56Y-5.025
X3.825Y-5.75
X3.825Y-5.85
X3.925Y-5.75
X3.925Y-5.85
X4.025Y-5.75
X4.025Y-5.85
X4.125Y-5.75
X4.125Y-5.85
X4.225Y-5.75
X4.225Y-5.85
X4.325Y-5.75
X4.325Y-5.85
X4.425Y-5.75
X4.425Y-5.85
X4.525Y-5.75
X4.525Y-5.85
X4.95Y-5.325
X4.95Y-5.425
X4.95Y-5.525
X5.05Y-5.325
X5.05Y-5.425
X5.05Y-5.525
X4.225Y-1.85
X4.225Y-1.95
X4.325Y-1.85
X4.325Y-1.95
X4.425Y-1.85
X4.425Y-1.95
X4.525Y-1.85
X4.525Y-1.95
X4.625Y-1.85
X4.625Y-1.95
T6
X3.98Y-5.5
X4.08Y-5.5
X4.18Y-5.5
T7
X4.3031Y-3.775
X4.4016Y-4.1687
X4.5Y-3.775
X3.8531Y-3.775
X3.9516Y-4.1687
X4.05Y-3.775
X3.4031Y-3.775
X3.5016Y-4.1687
X3.6Y-3.775
X4.7531Y-3.775
X4.8516Y-4.1687
X4.95Y-3.775
T8
X3.375Y-1.875
X3.375Y-5.85
X4.975Y-1.875
X4.975Y-5.85
T0
M30
