(module Bourns-PTA3043 (layer F.Cu) (tedit 5D34AC19)
  (descr "Bourns single-gang slide potentiometer, 60.0mm travel, https://www.bourns.com/docs/Product-Datasheets/pta.pdf")
  (tags "Bourns single-gang slide potentiometer 60.0mm")
  (fp_text reference REF** (at 36.75 -4) (layer F.SilkS)
    (effects (font (size 1 1) (thickness 0.15)))
  )
  (fp_text value Bourns_PTA3043_Slide (at 17 8.5) (layer F.Fab)
    (effects (font (size 1 1) (thickness 0.15)))
  )
  (fp_line (start 44.5 -3.25) (end 44.5 6.75) (layer F.CrtYd) (width 0.05))
  (fp_line (start 21.75 0) (end 21.75 4) (layer F.Fab) (width 0.15))
  (fp_line (start 36.75 0.5) (end 36.75 3) (layer F.SilkS) (width 0.15))
  (fp_line (start 6.75 1.75) (end 36.75 1.75) (layer F.SilkS) (width 0.15))
  (fp_line (start 6.75 0.5) (end 6.75 3) (layer F.SilkS) (width 0.15))
  (fp_circle (center 1.25 1.75) (end 2.25 1.75) (layer F.Fab) (width 0.1))
  (fp_circle (center 42.25 1.75) (end 43.25 1.75) (layer F.Fab) (width 0.1))
  (fp_line (start -0.75 6.25) (end -0.75 -1.75) (layer F.Fab) (width 0.1))
  (fp_line (start -0.75 -1.75) (end 0.25 -2.75) (layer F.Fab) (width 0.1))
  (fp_line (start -0.87 -2.87) (end 3.715 -2.87) (layer F.SilkS) (width 0.12))
  (fp_line (start 6.986 -2.87) (end 44.25 -2.87) (layer F.SilkS) (width 0.12))
  (fp_line (start -0.87 6.37) (end 2.515 6.37) (layer F.SilkS) (width 0.12))
  (fp_line (start 5.786 6.37) (end 44.25 6.37) (layer F.SilkS) (width 0.12))
  (fp_line (start -0.87 -2.87) (end -0.87 -1.175) (layer F.SilkS) (width 0.12))
  (fp_line (start -0.87 1.175) (end -0.87 2.678) (layer F.SilkS) (width 0.12))
  (fp_line (start -0.87 4.323) (end -0.87 6.37) (layer F.SilkS) (width 0.12))
  (fp_line (start 44.25 -2.87) (end 44.25 -0.823) (layer F.SilkS) (width 0.12))
  (fp_line (start 44.25 0.823) (end 44.25 6.37) (layer F.SilkS) (width 0.12))
  (fp_line (start -1.175 0) (end -1.675 -0.5) (layer F.SilkS) (width 0.12))
  (fp_line (start -1.675 -0.5) (end -1.675 0.5) (layer F.SilkS) (width 0.12))
  (fp_line (start -1.675 0.5) (end -1.175 0) (layer F.SilkS) (width 0.12))
  (fp_line (start -1.25 -3.25) (end -1.25 6.75) (layer F.CrtYd) (width 0.05))
  (fp_line (start -1.25 6.75) (end 44.5 6.75) (layer F.CrtYd) (width 0.05))
  (fp_line (start 44.5 -3.25) (end -1.25 -3.25) (layer F.CrtYd) (width 0.05))
  (fp_text user %R (at 36.75 1.75) (layer F.Fab)
    (effects (font (size 1 1) (thickness 0.15)))
  )
  (pad 1 thru_hole rect (at 0 0) (size 2 2) (drill 1.2) (layers *.Cu *.Mask))
  (pad 2 thru_hole circle (at 0 3.5) (size 2 2) (drill 1.2) (layers *.Cu *.Mask))
  (pad 3 thru_hole circle (at 43.5 0) (size 2 2) (drill 1.2) (layers *.Cu *.Mask))
  (pad MP thru_hole circle (at 5.35 -2.45) (size 2.7 2.7) (drill 1.7) (layers *.Cu *.Mask))
  (pad MP thru_hole circle (at 38.15 -2.45) (size 2.7 2.7) (drill 1.7) (layers *.Cu *.Mask))
  (pad MP thru_hole circle (at 4.15 5.95) (size 2.7 2.7) (drill 1.7) (layers *.Cu *.Mask))
  (pad MP thru_hole circle (at 39.35 5.95) (size 2.7 2.7) (drill 1.7) (layers *.Cu *.Mask))
  (model ${KISYS3DMOD}/Potentiometer_THT.3dshapes/Potentiometer_Bourns_PTA6043_Single_Slide.wrl
    (at (xyz 0 0 0))
    (scale (xyz 1 1 1))
    (rotate (xyz 0 0 0))
  )
)
