(module CUI-MJ3507-bent (layer F.Cu) (tedit 5D34FD61)
  (descr "TRS 3.5mm, vertical, Thonkiconn, PCB mount, (http://www.qingpu-electronics.com/en/products/WQP-PJ398SM-362.html)")
  (tags "WQP-PJ398SM TRS 3.5mm mono vertical jack thonkiconn qingpu")
  (fp_text reference J5 (at -3.048 -1.778 180) (layer F.SilkS)
    (effects (font (size 1 1) (thickness 0.15)))
  )
  (fp_text value TS (at 0 -9 180) (layer F.Fab)
    (effects (font (size 1 1) (thickness 0.15)))
  )
  (fp_line (start 0.5 5.5) (end 0.5 6.5) (layer F.SilkS) (width 0.15))
  (fp_line (start -0.5 5.5) (end -0.5 6.5) (layer F.SilkS) (width 0.15))
  (fp_text user S (at 2 7.5) (layer F.CrtYd)
    (effects (font (size 1.5 1.5) (thickness 0.15)))
  )
  (fp_circle (center 0 0) (end 1.75 1) (layer F.SilkS) (width 0.15))
  (fp_circle (center 0 0) (end 3 0) (layer F.Fab) (width 0.15))
  (fp_line (start 0 -2) (end 0 2) (layer F.Fab) (width 0.15))
  (fp_line (start -2 0) (end 2 0) (layer F.Fab) (width 0.15))
  (fp_line (start -4.5 4.75) (end -4.5 -5.65) (layer F.Fab) (width 0.1))
  (fp_text user %R (at 0.5 -7 180) (layer F.Fab)
    (effects (font (size 1 1) (thickness 0.15)))
  )
  (fp_line (start -4.5 -5.7) (end -4.5 4.8) (layer F.SilkS) (width 0.12))
  (fp_line (start 4.5 -5.7) (end 4.5 4.8) (layer F.SilkS) (width 0.12))
  (fp_circle (center 0 -0.02) (end 1.5 -0.02) (layer F.CrtYd) (width 0.12))
  (fp_line (start 4.5 -5.7) (end 1 -5.7) (layer F.SilkS) (width 0.12))
  (fp_line (start -1 -5.7) (end -4.5 -5.7) (layer F.SilkS) (width 0.12))
  (fp_line (start 4.5 4.8) (end 0.9 4.8) (layer F.SilkS) (width 0.12))
  (fp_line (start -0.9 4.8) (end -4.5 4.8) (layer F.SilkS) (width 0.12))
  (fp_line (start 4.5 4.75) (end 4.5 -5.65) (layer F.Fab) (width 0.1))
  (fp_line (start 4.5 -5.65) (end -4.5 -5.65) (layer F.Fab) (width 0.1))
  (fp_text user T (at 3.5 3.5) (layer F.CrtYd)
    (effects (font (size 1.5 1.5) (thickness 0.15)))
  )
  (fp_text user T (at 3.5 -4.25) (layer F.CrtYd)
    (effects (font (size 1.5 1.5) (thickness 0.15)))
  )
  (pad S thru_hole circle (at 0 7.75 180) (size 2 2) (drill 1) (layers *.Cu *.Mask))
  (pad T thru_hole oval (at 0 -4.5 180) (size 5 3.5) (drill 2.5) (layers *.Cu *.Mask))
  (pad T thru_hole oval (at 0 3.6 180) (size 5 3.5) (drill 2.5) (layers *.Cu *.Mask))
  (model ${KISYS3DMOD}/Connector_Audio.3dshapes/Jack_3.5mm_QingPu_WQP-PJ398SM_Vertical.wrl
    (at (xyz 0 0 0))
    (scale (xyz 1 1 1))
    (rotate (xyz 0 0 0))
  )
)
