(module CUI-MJ3507 (layer F.Cu) (tedit 5D349A8C)
  (descr "TRS 3.5mm, vertical, Thonkiconn, PCB mount, (http://www.qingpu-electronics.com/en/products/WQP-PJ398SM-362.html)")
  (tags "WQP-PJ398SM TRS 3.5mm mono vertical jack thonkiconn qingpu")
  (fp_text reference REF** (at 0.5 -7 180) (layer F.SilkS)
    (effects (font (size 1 1) (thickness 0.15)))
  )
  (fp_text value Jack_3.5mm_CUI_MJ3507 (at 0 -9 180) (layer F.Fab)
    (effects (font (size 1 1) (thickness 0.15)))
  )
  (fp_line (start 4.5 -5.65) (end -4.5 -5.65) (layer F.Fab) (width 0.1))
  (fp_line (start 4.5 4.75) (end 4.5 -5.65) (layer F.Fab) (width 0.1))
  (fp_line (start -0.9 4.8) (end -4.5 4.8) (layer F.SilkS) (width 0.12))
  (fp_line (start 4.5 4.8) (end 0.9 4.8) (layer F.SilkS) (width 0.12))
  (fp_line (start -1 -5.7) (end -4.5 -5.7) (layer F.SilkS) (width 0.12))
  (fp_line (start 4.5 -5.7) (end 1 -5.7) (layer F.SilkS) (width 0.12))
  (fp_line (start -1.41 -0.48) (end -0.46 -1.43) (layer Dwgs.User) (width 0.12))
  (fp_line (start -1.42 0.375) (end 0.4 -1.44) (layer Dwgs.User) (width 0.12))
  (fp_line (start -1.07 0.99) (end 1.01 -1.09) (layer Dwgs.User) (width 0.12))
  (fp_line (start -0.58 1.33) (end 1.36 -0.61) (layer Dwgs.User) (width 0.12))
  (fp_line (start 0.09 1.46) (end 1.48 0.07) (layer Dwgs.User) (width 0.12))
  (fp_circle (center 0 -0.02) (end 1.5 -0.02) (layer Dwgs.User) (width 0.12))
  (fp_line (start 4.5 -5.7) (end 4.5 4.8) (layer F.SilkS) (width 0.12))
  (fp_line (start -4.5 -5.7) (end -4.5 4.8) (layer F.SilkS) (width 0.12))
  (fp_text user %R (at 0.5 -7 180) (layer F.Fab)
    (effects (font (size 1 1) (thickness 0.15)))
  )
  (fp_line (start -4.5 4.75) (end -4.5 -5.65) (layer F.Fab) (width 0.1))
  (fp_text user KEEPOUT (at 0 -0.02) (layer Cmts.User)
    (effects (font (size 0.4 0.4) (thickness 0.051)))
  )
  (fp_line (start -2 0) (end 2 0) (layer F.Fab) (width 0.15))
  (fp_line (start 0 -2) (end 0 2) (layer F.Fab) (width 0.15))
  (fp_circle (center 0 0) (end 3 0) (layer F.Fab) (width 0.15))
  (fp_circle (center 0 0) (end 1.75 1) (layer F.SilkS) (width 0.15))
  (fp_text user S (at 1.75 6.75) (layer F.SilkS)
    (effects (font (size 1.5 1.5) (thickness 0.15)))
  )
  (fp_line (start -0.5 5.25) (end -0.5 8) (layer F.SilkS) (width 0.15))
  (fp_line (start 0.5 5.25) (end 0.5 8) (layer F.SilkS) (width 0.15))
  (pad T thru_hole oval (at 0 3.6 180) (size 5 3.5) (drill 2.5) (layers *.Cu *.Mask))
  (pad T thru_hole oval (at 0 -4.5 180) (size 5 3.5) (drill 2.5) (layers *.Cu *.Mask))
  (pad S thru_hole circle (at 0 9 180) (size 2 2) (drill 1) (layers *.Cu *.Mask))
  (model ${KISYS3DMOD}/Connector_Audio.3dshapes/Jack_3.5mm_QingPu_WQP-PJ398SM_Vertical.wrl
    (at (xyz 0 0 0))
    (scale (xyz 1 1 1))
    (rotate (xyz 0 0 0))
  )
)
