(module Pot-P100KH1 (layer F.Cu) (tedit 5D34B74F)
  (descr "Potentiometer, vertical, Alps RK09L Single, http://www.alps.com/prod/info/E/HTML/Potentiometer/RotaryPotentiometers/RK09L/RK09L_list.html")
  (tags "Potentiometer vertical Alps RK09L Single")
  (fp_text reference REF** (at 5.725 -10.5) (layer F.SilkS)
    (effects (font (size 1 1) (thickness 0.15)))
  )
  (fp_text value Bourns-PDB12-H (at 5.725 5.5) (layer F.Fab)
    (effects (font (size 1 1) (thickness 0.15)))
  )
  (fp_text user %R (at 2 -2.5 90) (layer F.Fab)
    (effects (font (size 1 1) (thickness 0.15)))
  )
  (fp_line (start 18 -9.5) (end -1.15 -9.5) (layer F.CrtYd) (width 0.05))
  (fp_line (start -1.15 4.5) (end 18 4.5) (layer F.CrtYd) (width 0.05))
  (fp_line (start -1.15 -9.5) (end -1.15 4.5) (layer F.CrtYd) (width 0.05))
  (fp_line (start 17 -8.55) (end 1.6 -8.55) (layer F.Fab) (width 0.1))
  (fp_line (start 1.6 3.55) (end 17 3.55) (layer F.Fab) (width 0.1))
  (fp_line (start 1.6 -8.55) (end 1.6 3.55) (layer F.Fab) (width 0.1))
  (fp_circle (center 11 -2.5) (end 14 -2.5) (layer F.SilkS) (width 0.1))
  (fp_line (start -1.25 -9) (end 17.5 -9) (layer F.SilkS) (width 0.15))
  (fp_line (start 17.5 -9) (end 17.5 4) (layer F.SilkS) (width 0.15))
  (fp_line (start 17.5 4) (end -1.25 4) (layer F.SilkS) (width 0.15))
  (fp_line (start -1.25 4) (end -1.25 -9) (layer F.SilkS) (width 0.15))
  (fp_line (start 8.5 -1) (end 13.5 -1) (layer F.SilkS) (width 0.15))
  (fp_line (start 9 -2.5) (end 13 -2.5) (layer F.Fab) (width 0.15))
  (fp_line (start 11 -4) (end 11 -1) (layer F.Fab) (width 0.15))
  (fp_circle (center 11 -2.5) (end 15.5 -2.5) (layer F.Fab) (width 0.15))
  (fp_line (start 18 -9.5) (end 18 4.5) (layer F.CrtYd) (width 0.05))
  (fp_line (start 17 -8.5) (end 17 3.5) (layer F.Fab) (width 0.1))
  (pad "" np_thru_hole roundrect (at 11 3.3) (size 4 3.5) (drill 2.5) (layers *.Cu *.Mask) (roundrect_rratio 0.25))
  (pad "" np_thru_hole roundrect (at 11 -8.3) (size 4 3.5) (drill 2.5) (layers *.Cu *.Mask) (roundrect_rratio 0.25))
  (pad 1 thru_hole circle (at 0 -6.25) (size 2 2) (drill 1.2) (layers *.Cu *.Mask))
  (pad 2 thru_hole circle (at 0 -3.75) (size 2 2) (drill 1.2) (layers *.Cu *.Mask))
  (pad 3 thru_hole circle (at 0 -1.25) (size 2 2) (drill 1.2) (layers *.Cu *.Mask))
  (pad NC thru_hole circle (at 0 1.25) (size 2 2) (drill 1.2) (layers *.Cu *.Mask))
  (model ${KISYS3DMOD}/Potentiometer_THT.3dshapes/Potentiometer_Alps_RK09L_Single_Vertical.wrl
    (at (xyz 0 0 0))
    (scale (xyz 1 1 1))
    (rotate (xyz 0 0 0))
  )
)
