M48
;DRILL file {KiCad 5.0.2+dfsg1-1} date Tue 30 Jul 2019 09:39:21 PM EDT
;FORMAT={-:-/ absolute / inch / decimal}
FMAT,2
INCH,TZ
T1C0.0984
%
G90
G05
T1
X3.4706Y-5.0036
X3.9273Y-5.0036
X3.4706Y-3.5036
X3.9273Y-3.5036
X3.4706Y-4.2556
X3.9273Y-4.2556
X3.4706Y-2.7556
X3.9273Y-2.7556
X3.4706Y-2.0056
X3.9273Y-2.0056
T0
M30
