G04 #@! TF.GenerationSoftware,KiCad,Pcbnew,5.0.2+dfsg1-1*
G04 #@! TF.CreationDate,2019-07-30T21:39:16-04:00*
G04 #@! TF.ProjectId,rat4_FP,72617434-5f46-4502-9e6b-696361645f70,v1.0*
G04 #@! TF.SameCoordinates,Original*
G04 #@! TF.FileFunction,Legend,Bot*
G04 #@! TF.FilePolarity,Positive*
%FSLAX46Y46*%
G04 Gerber Fmt 4.6, Leading zero omitted, Abs format (unit mm)*
G04 Created by KiCad (PCBNEW 5.0.2+dfsg1-1) date Tue 30 Jul 2019 09:39:16 PM EDT*
%MOMM*%
%LPD*%
G01*
G04 APERTURE LIST*
%ADD10C,0.300000*%
%ADD11C,0.150000*%
%ADD12C,0.120000*%
G04 APERTURE END LIST*
D10*
X121923571Y-145945714D02*
X121852142Y-146017142D01*
X121923571Y-146088571D01*
X121995000Y-146017142D01*
X121923571Y-145945714D01*
X121923571Y-146088571D01*
X120137857Y-144517142D02*
X121423571Y-146445714D01*
X118995000Y-145088571D02*
X118995000Y-146588571D01*
X118995000Y-146017142D02*
X119137857Y-146088571D01*
X119423571Y-146088571D01*
X119566428Y-146017142D01*
X119637857Y-145945714D01*
X119709285Y-145802857D01*
X119709285Y-145374285D01*
X119637857Y-145231428D01*
X119566428Y-145160000D01*
X119423571Y-145088571D01*
X119137857Y-145088571D01*
X118995000Y-145160000D01*
X117637857Y-145088571D02*
X117637857Y-146088571D01*
X118280714Y-145088571D02*
X118280714Y-145874285D01*
X118209285Y-146017142D01*
X118066428Y-146088571D01*
X117852142Y-146088571D01*
X117709285Y-146017142D01*
X117637857Y-145945714D01*
X116995000Y-146017142D02*
X116852142Y-146088571D01*
X116566428Y-146088571D01*
X116423571Y-146017142D01*
X116352142Y-145874285D01*
X116352142Y-145802857D01*
X116423571Y-145660000D01*
X116566428Y-145588571D01*
X116780714Y-145588571D01*
X116923571Y-145517142D01*
X116995000Y-145374285D01*
X116995000Y-145302857D01*
X116923571Y-145160000D01*
X116780714Y-145088571D01*
X116566428Y-145088571D01*
X116423571Y-145160000D01*
X115852142Y-145088571D02*
X115566428Y-146088571D01*
X115280714Y-145374285D01*
X114995000Y-146088571D01*
X114709285Y-145088571D01*
X119066428Y-147781428D02*
X119209285Y-147710000D01*
X119280714Y-147638571D01*
X119352142Y-147495714D01*
X119352142Y-147424285D01*
X119280714Y-147281428D01*
X119209285Y-147210000D01*
X119066428Y-147138571D01*
X118780714Y-147138571D01*
X118637857Y-147210000D01*
X118566428Y-147281428D01*
X118495000Y-147424285D01*
X118495000Y-147495714D01*
X118566428Y-147638571D01*
X118637857Y-147710000D01*
X118780714Y-147781428D01*
X119066428Y-147781428D01*
X119209285Y-147852857D01*
X119280714Y-147924285D01*
X119352142Y-148067142D01*
X119352142Y-148352857D01*
X119280714Y-148495714D01*
X119209285Y-148567142D01*
X119066428Y-148638571D01*
X118780714Y-148638571D01*
X118637857Y-148567142D01*
X118566428Y-148495714D01*
X118495000Y-148352857D01*
X118495000Y-148067142D01*
X118566428Y-147924285D01*
X118637857Y-147852857D01*
X118780714Y-147781428D01*
X116780714Y-147067142D02*
X118066428Y-148995714D01*
X116280714Y-148638571D02*
X116280714Y-147138571D01*
X115709285Y-147138571D02*
X114709285Y-148638571D01*
X114709285Y-147138571D02*
X115709285Y-148638571D01*
D11*
G36*
X111125000Y-126365000D02*
X111125000Y-128905000D01*
X109220000Y-127635000D01*
X111125000Y-126365000D01*
G37*
X111125000Y-126365000D02*
X111125000Y-128905000D01*
X109220000Y-127635000D01*
X111125000Y-126365000D01*
G36*
X111125000Y-109855000D02*
X111125000Y-112395000D01*
X109220000Y-111125000D01*
X111125000Y-109855000D01*
G37*
X111125000Y-109855000D02*
X111125000Y-112395000D01*
X109220000Y-111125000D01*
X111125000Y-109855000D01*
G36*
X111125000Y-76835000D02*
X111125000Y-79375000D01*
X109220000Y-78105000D01*
X111125000Y-76835000D01*
G37*
X111125000Y-76835000D02*
X111125000Y-79375000D01*
X109220000Y-78105000D01*
X111125000Y-76835000D01*
D10*
X118367857Y-127535714D02*
X118439285Y-127607142D01*
X118653571Y-127678571D01*
X118796428Y-127678571D01*
X119010714Y-127607142D01*
X119153571Y-127464285D01*
X119225000Y-127321428D01*
X119296428Y-127035714D01*
X119296428Y-126821428D01*
X119225000Y-126535714D01*
X119153571Y-126392857D01*
X119010714Y-126250000D01*
X118796428Y-126178571D01*
X118653571Y-126178571D01*
X118439285Y-126250000D01*
X118367857Y-126321428D01*
X117939285Y-126178571D02*
X117439285Y-127678571D01*
X116939285Y-126178571D01*
X115796428Y-126678571D02*
X115796428Y-127678571D01*
X116153571Y-126107142D02*
X116510714Y-127178571D01*
X115582142Y-127178571D01*
X116966857Y-131036142D02*
X116752571Y-131107571D01*
X116395428Y-131107571D01*
X116252571Y-131036142D01*
X116181142Y-130964714D01*
X116109714Y-130821857D01*
X116109714Y-130679000D01*
X116181142Y-130536142D01*
X116252571Y-130464714D01*
X116395428Y-130393285D01*
X116681142Y-130321857D01*
X116824000Y-130250428D01*
X116895428Y-130179000D01*
X116966857Y-130036142D01*
X116966857Y-129893285D01*
X116895428Y-129750428D01*
X116824000Y-129679000D01*
X116681142Y-129607571D01*
X116324000Y-129607571D01*
X116109714Y-129679000D01*
X115538285Y-129750428D02*
X115466857Y-129679000D01*
X115324000Y-129607571D01*
X114966857Y-129607571D01*
X114824000Y-129679000D01*
X114752571Y-129750428D01*
X114681142Y-129893285D01*
X114681142Y-130036142D01*
X114752571Y-130250428D01*
X115609714Y-131107571D01*
X114681142Y-131107571D01*
X117732857Y-108485714D02*
X117804285Y-108557142D01*
X118018571Y-108628571D01*
X118161428Y-108628571D01*
X118375714Y-108557142D01*
X118518571Y-108414285D01*
X118590000Y-108271428D01*
X118661428Y-107985714D01*
X118661428Y-107771428D01*
X118590000Y-107485714D01*
X118518571Y-107342857D01*
X118375714Y-107200000D01*
X118161428Y-107128571D01*
X118018571Y-107128571D01*
X117804285Y-107200000D01*
X117732857Y-107271428D01*
X117304285Y-107128571D02*
X116804285Y-108628571D01*
X116304285Y-107128571D01*
X115947142Y-107128571D02*
X115018571Y-107128571D01*
X115518571Y-107700000D01*
X115304285Y-107700000D01*
X115161428Y-107771428D01*
X115090000Y-107842857D01*
X115018571Y-107985714D01*
X115018571Y-108342857D01*
X115090000Y-108485714D01*
X115161428Y-108557142D01*
X115304285Y-108628571D01*
X115732857Y-108628571D01*
X115875714Y-108557142D01*
X115947142Y-108485714D01*
X117732857Y-89435714D02*
X117804285Y-89507142D01*
X118018571Y-89578571D01*
X118161428Y-89578571D01*
X118375714Y-89507142D01*
X118518571Y-89364285D01*
X118590000Y-89221428D01*
X118661428Y-88935714D01*
X118661428Y-88721428D01*
X118590000Y-88435714D01*
X118518571Y-88292857D01*
X118375714Y-88150000D01*
X118161428Y-88078571D01*
X118018571Y-88078571D01*
X117804285Y-88150000D01*
X117732857Y-88221428D01*
X117304285Y-88078571D02*
X116804285Y-89578571D01*
X116304285Y-88078571D01*
X115875714Y-88221428D02*
X115804285Y-88150000D01*
X115661428Y-88078571D01*
X115304285Y-88078571D01*
X115161428Y-88150000D01*
X115090000Y-88221428D01*
X115018571Y-88364285D01*
X115018571Y-88507142D01*
X115090000Y-88721428D01*
X115947142Y-89578571D01*
X115018571Y-89578571D01*
X117732857Y-70385714D02*
X117804285Y-70457142D01*
X118018571Y-70528571D01*
X118161428Y-70528571D01*
X118375714Y-70457142D01*
X118518571Y-70314285D01*
X118590000Y-70171428D01*
X118661428Y-69885714D01*
X118661428Y-69671428D01*
X118590000Y-69385714D01*
X118518571Y-69242857D01*
X118375714Y-69100000D01*
X118161428Y-69028571D01*
X118018571Y-69028571D01*
X117804285Y-69100000D01*
X117732857Y-69171428D01*
X117304285Y-69028571D02*
X116804285Y-70528571D01*
X116304285Y-69028571D01*
X115018571Y-70528571D02*
X115875714Y-70528571D01*
X115447142Y-70528571D02*
X115447142Y-69028571D01*
X115590000Y-69242857D01*
X115732857Y-69385714D01*
X115875714Y-69457142D01*
X91912142Y-148633571D02*
X91912142Y-147133571D01*
X91340714Y-147133571D01*
X91197857Y-147205000D01*
X91126428Y-147276428D01*
X91055000Y-147419285D01*
X91055000Y-147633571D01*
X91126428Y-147776428D01*
X91197857Y-147847857D01*
X91340714Y-147919285D01*
X91912142Y-147919285D01*
X89697857Y-147133571D02*
X90412142Y-147133571D01*
X90483571Y-147847857D01*
X90412142Y-147776428D01*
X90269285Y-147705000D01*
X89912142Y-147705000D01*
X89769285Y-147776428D01*
X89697857Y-147847857D01*
X89626428Y-147990714D01*
X89626428Y-148347857D01*
X89697857Y-148490714D01*
X89769285Y-148562142D01*
X89912142Y-148633571D01*
X90269285Y-148633571D01*
X90412142Y-148562142D01*
X90483571Y-148490714D01*
X103377857Y-97040000D02*
X103520714Y-96968571D01*
X103735000Y-96968571D01*
X103949285Y-97040000D01*
X104092142Y-97182857D01*
X104163571Y-97325714D01*
X104235000Y-97611428D01*
X104235000Y-97825714D01*
X104163571Y-98111428D01*
X104092142Y-98254285D01*
X103949285Y-98397142D01*
X103735000Y-98468571D01*
X103592142Y-98468571D01*
X103377857Y-98397142D01*
X103306428Y-98325714D01*
X103306428Y-97825714D01*
X103592142Y-97825714D01*
X102663571Y-98468571D02*
X102663571Y-96968571D01*
X101806428Y-98468571D01*
X101806428Y-96968571D01*
X101092142Y-98468571D02*
X101092142Y-96968571D01*
X100735000Y-96968571D01*
X100520714Y-97040000D01*
X100377857Y-97182857D01*
X100306428Y-97325714D01*
X100235000Y-97611428D01*
X100235000Y-97825714D01*
X100306428Y-98111428D01*
X100377857Y-98254285D01*
X100520714Y-98397142D01*
X100735000Y-98468571D01*
X101092142Y-98468571D01*
X103377857Y-93952142D02*
X103163571Y-94023571D01*
X102806428Y-94023571D01*
X102663571Y-93952142D01*
X102592142Y-93880714D01*
X102520714Y-93737857D01*
X102520714Y-93595000D01*
X102592142Y-93452142D01*
X102663571Y-93380714D01*
X102806428Y-93309285D01*
X103092142Y-93237857D01*
X103235000Y-93166428D01*
X103306428Y-93095000D01*
X103377857Y-92952142D01*
X103377857Y-92809285D01*
X103306428Y-92666428D01*
X103235000Y-92595000D01*
X103092142Y-92523571D01*
X102735000Y-92523571D01*
X102520714Y-92595000D01*
X101163571Y-92523571D02*
X101877857Y-92523571D01*
X101949285Y-93237857D01*
X101877857Y-93166428D01*
X101735000Y-93095000D01*
X101377857Y-93095000D01*
X101235000Y-93166428D01*
X101163571Y-93237857D01*
X101092142Y-93380714D01*
X101092142Y-93737857D01*
X101163571Y-93880714D01*
X101235000Y-93952142D01*
X101377857Y-94023571D01*
X101735000Y-94023571D01*
X101877857Y-93952142D01*
X101949285Y-93880714D01*
X95087142Y-132758571D02*
X95087142Y-131258571D01*
X94515714Y-131258571D01*
X94372857Y-131330000D01*
X94301428Y-131401428D01*
X94230000Y-131544285D01*
X94230000Y-131758571D01*
X94301428Y-131901428D01*
X94372857Y-131972857D01*
X94515714Y-132044285D01*
X95087142Y-132044285D01*
X92944285Y-131758571D02*
X92944285Y-132758571D01*
X93301428Y-131187142D02*
X93658571Y-132258571D01*
X92730000Y-132258571D01*
X95087142Y-113708571D02*
X95087142Y-112208571D01*
X94515714Y-112208571D01*
X94372857Y-112280000D01*
X94301428Y-112351428D01*
X94230000Y-112494285D01*
X94230000Y-112708571D01*
X94301428Y-112851428D01*
X94372857Y-112922857D01*
X94515714Y-112994285D01*
X95087142Y-112994285D01*
X93730000Y-112208571D02*
X92801428Y-112208571D01*
X93301428Y-112780000D01*
X93087142Y-112780000D01*
X92944285Y-112851428D01*
X92872857Y-112922857D01*
X92801428Y-113065714D01*
X92801428Y-113422857D01*
X92872857Y-113565714D01*
X92944285Y-113637142D01*
X93087142Y-113708571D01*
X93515714Y-113708571D01*
X93658571Y-113637142D01*
X93730000Y-113565714D01*
X95087142Y-95293571D02*
X95087142Y-93793571D01*
X94515714Y-93793571D01*
X94372857Y-93865000D01*
X94301428Y-93936428D01*
X94230000Y-94079285D01*
X94230000Y-94293571D01*
X94301428Y-94436428D01*
X94372857Y-94507857D01*
X94515714Y-94579285D01*
X95087142Y-94579285D01*
X93658571Y-93936428D02*
X93587142Y-93865000D01*
X93444285Y-93793571D01*
X93087142Y-93793571D01*
X92944285Y-93865000D01*
X92872857Y-93936428D01*
X92801428Y-94079285D01*
X92801428Y-94222142D01*
X92872857Y-94436428D01*
X93730000Y-95293571D01*
X92801428Y-95293571D01*
X95087142Y-76243571D02*
X95087142Y-74743571D01*
X94515714Y-74743571D01*
X94372857Y-74815000D01*
X94301428Y-74886428D01*
X94230000Y-75029285D01*
X94230000Y-75243571D01*
X94301428Y-75386428D01*
X94372857Y-75457857D01*
X94515714Y-75529285D01*
X95087142Y-75529285D01*
X92801428Y-76243571D02*
X93658571Y-76243571D01*
X93230000Y-76243571D02*
X93230000Y-74743571D01*
X93372857Y-74957857D01*
X93515714Y-75100714D01*
X93658571Y-75172142D01*
X95087142Y-55923571D02*
X95087142Y-54423571D01*
X94515714Y-54423571D01*
X94372857Y-54495000D01*
X94301428Y-54566428D01*
X94230000Y-54709285D01*
X94230000Y-54923571D01*
X94301428Y-55066428D01*
X94372857Y-55137857D01*
X94515714Y-55209285D01*
X95087142Y-55209285D01*
X93301428Y-54423571D02*
X93158571Y-54423571D01*
X93015714Y-54495000D01*
X92944285Y-54566428D01*
X92872857Y-54709285D01*
X92801428Y-54995000D01*
X92801428Y-55352142D01*
X92872857Y-55637857D01*
X92944285Y-55780714D01*
X93015714Y-55852142D01*
X93158571Y-55923571D01*
X93301428Y-55923571D01*
X93444285Y-55852142D01*
X93515714Y-55780714D01*
X93587142Y-55637857D01*
X93658571Y-55352142D01*
X93658571Y-54995000D01*
X93587142Y-54709285D01*
X93515714Y-54566428D01*
X93444285Y-54495000D01*
X93301428Y-54423571D01*
X117732857Y-51335714D02*
X117804285Y-51407142D01*
X118018571Y-51478571D01*
X118161428Y-51478571D01*
X118375714Y-51407142D01*
X118518571Y-51264285D01*
X118590000Y-51121428D01*
X118661428Y-50835714D01*
X118661428Y-50621428D01*
X118590000Y-50335714D01*
X118518571Y-50192857D01*
X118375714Y-50050000D01*
X118161428Y-49978571D01*
X118018571Y-49978571D01*
X117804285Y-50050000D01*
X117732857Y-50121428D01*
X116375714Y-51478571D02*
X117090000Y-51478571D01*
X117090000Y-49978571D01*
X115875714Y-51478571D02*
X115875714Y-49978571D01*
X115018571Y-51478571D02*
X115661428Y-50621428D01*
X115018571Y-49978571D02*
X115875714Y-50835714D01*
X108394285Y-60368571D02*
X108394285Y-58868571D01*
X107680000Y-60368571D02*
X107680000Y-58868571D01*
X106822857Y-60368571D01*
X106822857Y-58868571D01*
X106108571Y-60368571D02*
X106108571Y-58868571D01*
X105608571Y-58868571D02*
X104751428Y-58868571D01*
X105180000Y-60368571D02*
X105180000Y-58868571D01*
X125539285Y-64178571D02*
X125539285Y-62678571D01*
X124825000Y-64178571D02*
X124825000Y-62678571D01*
X123967857Y-64178571D01*
X123967857Y-62678571D01*
X123253571Y-64178571D02*
X123253571Y-62678571D01*
X122753571Y-62678571D02*
X121896428Y-62678571D01*
X122325000Y-64178571D02*
X122325000Y-62678571D01*
X123697857Y-140307142D02*
X123483571Y-140378571D01*
X123126428Y-140378571D01*
X122983571Y-140307142D01*
X122912142Y-140235714D01*
X122840714Y-140092857D01*
X122840714Y-139950000D01*
X122912142Y-139807142D01*
X122983571Y-139735714D01*
X123126428Y-139664285D01*
X123412142Y-139592857D01*
X123555000Y-139521428D01*
X123626428Y-139450000D01*
X123697857Y-139307142D01*
X123697857Y-139164285D01*
X123626428Y-139021428D01*
X123555000Y-138950000D01*
X123412142Y-138878571D01*
X123055000Y-138878571D01*
X122840714Y-138950000D01*
X121555000Y-139378571D02*
X121555000Y-140378571D01*
X121912142Y-138807142D02*
X122269285Y-139878571D01*
X121340714Y-139878571D01*
X123697857Y-121257142D02*
X123483571Y-121328571D01*
X123126428Y-121328571D01*
X122983571Y-121257142D01*
X122912142Y-121185714D01*
X122840714Y-121042857D01*
X122840714Y-120900000D01*
X122912142Y-120757142D01*
X122983571Y-120685714D01*
X123126428Y-120614285D01*
X123412142Y-120542857D01*
X123555000Y-120471428D01*
X123626428Y-120400000D01*
X123697857Y-120257142D01*
X123697857Y-120114285D01*
X123626428Y-119971428D01*
X123555000Y-119900000D01*
X123412142Y-119828571D01*
X123055000Y-119828571D01*
X122840714Y-119900000D01*
X122340714Y-119828571D02*
X121412142Y-119828571D01*
X121912142Y-120400000D01*
X121697857Y-120400000D01*
X121555000Y-120471428D01*
X121483571Y-120542857D01*
X121412142Y-120685714D01*
X121412142Y-121042857D01*
X121483571Y-121185714D01*
X121555000Y-121257142D01*
X121697857Y-121328571D01*
X122126428Y-121328571D01*
X122269285Y-121257142D01*
X122340714Y-121185714D01*
X123697857Y-102207142D02*
X123483571Y-102278571D01*
X123126428Y-102278571D01*
X122983571Y-102207142D01*
X122912142Y-102135714D01*
X122840714Y-101992857D01*
X122840714Y-101850000D01*
X122912142Y-101707142D01*
X122983571Y-101635714D01*
X123126428Y-101564285D01*
X123412142Y-101492857D01*
X123555000Y-101421428D01*
X123626428Y-101350000D01*
X123697857Y-101207142D01*
X123697857Y-101064285D01*
X123626428Y-100921428D01*
X123555000Y-100850000D01*
X123412142Y-100778571D01*
X123055000Y-100778571D01*
X122840714Y-100850000D01*
X122269285Y-100921428D02*
X122197857Y-100850000D01*
X122055000Y-100778571D01*
X121697857Y-100778571D01*
X121555000Y-100850000D01*
X121483571Y-100921428D01*
X121412142Y-101064285D01*
X121412142Y-101207142D01*
X121483571Y-101421428D01*
X122340714Y-102278571D01*
X121412142Y-102278571D01*
X123697857Y-83157142D02*
X123483571Y-83228571D01*
X123126428Y-83228571D01*
X122983571Y-83157142D01*
X122912142Y-83085714D01*
X122840714Y-82942857D01*
X122840714Y-82800000D01*
X122912142Y-82657142D01*
X122983571Y-82585714D01*
X123126428Y-82514285D01*
X123412142Y-82442857D01*
X123555000Y-82371428D01*
X123626428Y-82300000D01*
X123697857Y-82157142D01*
X123697857Y-82014285D01*
X123626428Y-81871428D01*
X123555000Y-81800000D01*
X123412142Y-81728571D01*
X123055000Y-81728571D01*
X122840714Y-81800000D01*
X121412142Y-83228571D02*
X122269285Y-83228571D01*
X121840714Y-83228571D02*
X121840714Y-81728571D01*
X121983571Y-81942857D01*
X122126428Y-82085714D01*
X122269285Y-82157142D01*
X102735000Y-87443571D02*
X101806428Y-87443571D01*
X102306428Y-88015000D01*
X102092142Y-88015000D01*
X101949285Y-88086428D01*
X101877857Y-88157857D01*
X101806428Y-88300714D01*
X101806428Y-88657857D01*
X101877857Y-88800714D01*
X101949285Y-88872142D01*
X102092142Y-88943571D01*
X102520714Y-88943571D01*
X102663571Y-88872142D01*
X102735000Y-88800714D01*
X113125000Y-87443571D02*
X112625000Y-88943571D01*
X112125000Y-87443571D01*
X111625000Y-88943571D02*
X111625000Y-87443571D01*
X111267857Y-87443571D01*
X111053571Y-87515000D01*
X110910714Y-87657857D01*
X110839285Y-87800714D01*
X110767857Y-88086428D01*
X110767857Y-88300714D01*
X110839285Y-88586428D01*
X110910714Y-88729285D01*
X111053571Y-88872142D01*
X111267857Y-88943571D01*
X111625000Y-88943571D01*
X110125000Y-88943571D02*
X110125000Y-87443571D01*
X109767857Y-87443571D01*
X109553571Y-87515000D01*
X109410714Y-87657857D01*
X109339285Y-87800714D01*
X109267857Y-88086428D01*
X109267857Y-88300714D01*
X109339285Y-88586428D01*
X109410714Y-88729285D01*
X109553571Y-88872142D01*
X109767857Y-88943571D01*
X110125000Y-88943571D01*
X112839285Y-81323571D02*
X112839285Y-79823571D01*
X112125000Y-81323571D02*
X112125000Y-79823571D01*
X111267857Y-81323571D01*
X111267857Y-79823571D01*
X110553571Y-81323571D02*
X110553571Y-79823571D01*
X110053571Y-79823571D02*
X109196428Y-79823571D01*
X109625000Y-81323571D02*
X109625000Y-79823571D01*
X111632857Y-83792142D02*
X111418571Y-83863571D01*
X111061428Y-83863571D01*
X110918571Y-83792142D01*
X110847142Y-83720714D01*
X110775714Y-83577857D01*
X110775714Y-83435000D01*
X110847142Y-83292142D01*
X110918571Y-83220714D01*
X111061428Y-83149285D01*
X111347142Y-83077857D01*
X111490000Y-83006428D01*
X111561428Y-82935000D01*
X111632857Y-82792142D01*
X111632857Y-82649285D01*
X111561428Y-82506428D01*
X111490000Y-82435000D01*
X111347142Y-82363571D01*
X110990000Y-82363571D01*
X110775714Y-82435000D01*
X109347142Y-83863571D02*
X110204285Y-83863571D01*
X109775714Y-83863571D02*
X109775714Y-82363571D01*
X109918571Y-82577857D01*
X110061428Y-82720714D01*
X110204285Y-82792142D01*
X111632857Y-86332142D02*
X111418571Y-86403571D01*
X111061428Y-86403571D01*
X110918571Y-86332142D01*
X110847142Y-86260714D01*
X110775714Y-86117857D01*
X110775714Y-85975000D01*
X110847142Y-85832142D01*
X110918571Y-85760714D01*
X111061428Y-85689285D01*
X111347142Y-85617857D01*
X111490000Y-85546428D01*
X111561428Y-85475000D01*
X111632857Y-85332142D01*
X111632857Y-85189285D01*
X111561428Y-85046428D01*
X111490000Y-84975000D01*
X111347142Y-84903571D01*
X110990000Y-84903571D01*
X110775714Y-84975000D01*
X110204285Y-85046428D02*
X110132857Y-84975000D01*
X109990000Y-84903571D01*
X109632857Y-84903571D01*
X109490000Y-84975000D01*
X109418571Y-85046428D01*
X109347142Y-85189285D01*
X109347142Y-85332142D01*
X109418571Y-85546428D01*
X110275714Y-86403571D01*
X109347142Y-86403571D01*
X102742857Y-86332142D02*
X102528571Y-86403571D01*
X102171428Y-86403571D01*
X102028571Y-86332142D01*
X101957142Y-86260714D01*
X101885714Y-86117857D01*
X101885714Y-85975000D01*
X101957142Y-85832142D01*
X102028571Y-85760714D01*
X102171428Y-85689285D01*
X102457142Y-85617857D01*
X102600000Y-85546428D01*
X102671428Y-85475000D01*
X102742857Y-85332142D01*
X102742857Y-85189285D01*
X102671428Y-85046428D01*
X102600000Y-84975000D01*
X102457142Y-84903571D01*
X102100000Y-84903571D01*
X101885714Y-84975000D01*
X100528571Y-84903571D02*
X101242857Y-84903571D01*
X101314285Y-85617857D01*
X101242857Y-85546428D01*
X101100000Y-85475000D01*
X100742857Y-85475000D01*
X100600000Y-85546428D01*
X100528571Y-85617857D01*
X100457142Y-85760714D01*
X100457142Y-86117857D01*
X100528571Y-86260714D01*
X100600000Y-86332142D01*
X100742857Y-86403571D01*
X101100000Y-86403571D01*
X101242857Y-86332142D01*
X101314285Y-86260714D01*
X102107857Y-77355000D02*
X102250714Y-77283571D01*
X102465000Y-77283571D01*
X102679285Y-77355000D01*
X102822142Y-77497857D01*
X102893571Y-77640714D01*
X102965000Y-77926428D01*
X102965000Y-78140714D01*
X102893571Y-78426428D01*
X102822142Y-78569285D01*
X102679285Y-78712142D01*
X102465000Y-78783571D01*
X102322142Y-78783571D01*
X102107857Y-78712142D01*
X102036428Y-78640714D01*
X102036428Y-78140714D01*
X102322142Y-78140714D01*
X101393571Y-78783571D02*
X101393571Y-77283571D01*
X100536428Y-78783571D01*
X100536428Y-77283571D01*
X99822142Y-78783571D02*
X99822142Y-77283571D01*
X99465000Y-77283571D01*
X99250714Y-77355000D01*
X99107857Y-77497857D01*
X99036428Y-77640714D01*
X98965000Y-77926428D01*
X98965000Y-78140714D01*
X99036428Y-78426428D01*
X99107857Y-78569285D01*
X99250714Y-78712142D01*
X99465000Y-78783571D01*
X99822142Y-78783571D01*
X101857857Y-81180714D02*
X101929285Y-81252142D01*
X102143571Y-81323571D01*
X102286428Y-81323571D01*
X102500714Y-81252142D01*
X102643571Y-81109285D01*
X102715000Y-80966428D01*
X102786428Y-80680714D01*
X102786428Y-80466428D01*
X102715000Y-80180714D01*
X102643571Y-80037857D01*
X102500714Y-79895000D01*
X102286428Y-79823571D01*
X102143571Y-79823571D01*
X101929285Y-79895000D01*
X101857857Y-79966428D01*
X100500714Y-81323571D02*
X101215000Y-81323571D01*
X101215000Y-79823571D01*
X100000714Y-81323571D02*
X100000714Y-79823571D01*
X99143571Y-81323571D02*
X99786428Y-80466428D01*
X99143571Y-79823571D02*
X100000714Y-80680714D01*
X102742857Y-83792142D02*
X102528571Y-83863571D01*
X102171428Y-83863571D01*
X102028571Y-83792142D01*
X101957142Y-83720714D01*
X101885714Y-83577857D01*
X101885714Y-83435000D01*
X101957142Y-83292142D01*
X102028571Y-83220714D01*
X102171428Y-83149285D01*
X102457142Y-83077857D01*
X102600000Y-83006428D01*
X102671428Y-82935000D01*
X102742857Y-82792142D01*
X102742857Y-82649285D01*
X102671428Y-82506428D01*
X102600000Y-82435000D01*
X102457142Y-82363571D01*
X102100000Y-82363571D01*
X101885714Y-82435000D01*
X100600000Y-82863571D02*
X100600000Y-83863571D01*
X100957142Y-82292142D02*
X101314285Y-83363571D01*
X100385714Y-83363571D01*
X102607857Y-138473571D02*
X102750714Y-138402142D01*
X102822142Y-138259285D01*
X102822142Y-136973571D01*
X102250714Y-137473571D02*
X101679285Y-137473571D01*
X102036428Y-138473571D02*
X102036428Y-137187857D01*
X101965000Y-137045000D01*
X101822142Y-136973571D01*
X101679285Y-136973571D01*
X100965000Y-138473571D02*
X101107857Y-138402142D01*
X101179285Y-138330714D01*
X101250714Y-138187857D01*
X101250714Y-137759285D01*
X101179285Y-137616428D01*
X101107857Y-137545000D01*
X100965000Y-137473571D01*
X100750714Y-137473571D01*
X100607857Y-137545000D01*
X100536428Y-137616428D01*
X100465000Y-137759285D01*
X100465000Y-138187857D01*
X100536428Y-138330714D01*
X100607857Y-138402142D01*
X100750714Y-138473571D01*
X100965000Y-138473571D01*
X99179285Y-137473571D02*
X99179285Y-138473571D01*
X99536428Y-136902142D02*
X99893571Y-137973571D01*
X98965000Y-137973571D01*
X102607857Y-135933571D02*
X102750714Y-135862142D01*
X102822142Y-135719285D01*
X102822142Y-134433571D01*
X102250714Y-134933571D02*
X101679285Y-134933571D01*
X102036428Y-135933571D02*
X102036428Y-134647857D01*
X101965000Y-134505000D01*
X101822142Y-134433571D01*
X101679285Y-134433571D01*
X100965000Y-135933571D02*
X101107857Y-135862142D01*
X101179285Y-135790714D01*
X101250714Y-135647857D01*
X101250714Y-135219285D01*
X101179285Y-135076428D01*
X101107857Y-135005000D01*
X100965000Y-134933571D01*
X100750714Y-134933571D01*
X100607857Y-135005000D01*
X100536428Y-135076428D01*
X100465000Y-135219285D01*
X100465000Y-135647857D01*
X100536428Y-135790714D01*
X100607857Y-135862142D01*
X100750714Y-135933571D01*
X100965000Y-135933571D01*
X99965000Y-134433571D02*
X99036428Y-134433571D01*
X99536428Y-135005000D01*
X99322142Y-135005000D01*
X99179285Y-135076428D01*
X99107857Y-135147857D01*
X99036428Y-135290714D01*
X99036428Y-135647857D01*
X99107857Y-135790714D01*
X99179285Y-135862142D01*
X99322142Y-135933571D01*
X99750714Y-135933571D01*
X99893571Y-135862142D01*
X99965000Y-135790714D01*
X102607857Y-133393571D02*
X102750714Y-133322142D01*
X102822142Y-133179285D01*
X102822142Y-131893571D01*
X102250714Y-132393571D02*
X101679285Y-132393571D01*
X102036428Y-133393571D02*
X102036428Y-132107857D01*
X101965000Y-131965000D01*
X101822142Y-131893571D01*
X101679285Y-131893571D01*
X100965000Y-133393571D02*
X101107857Y-133322142D01*
X101179285Y-133250714D01*
X101250714Y-133107857D01*
X101250714Y-132679285D01*
X101179285Y-132536428D01*
X101107857Y-132465000D01*
X100965000Y-132393571D01*
X100750714Y-132393571D01*
X100607857Y-132465000D01*
X100536428Y-132536428D01*
X100465000Y-132679285D01*
X100465000Y-133107857D01*
X100536428Y-133250714D01*
X100607857Y-133322142D01*
X100750714Y-133393571D01*
X100965000Y-133393571D01*
X99893571Y-132036428D02*
X99822142Y-131965000D01*
X99679285Y-131893571D01*
X99322142Y-131893571D01*
X99179285Y-131965000D01*
X99107857Y-132036428D01*
X99036428Y-132179285D01*
X99036428Y-132322142D01*
X99107857Y-132536428D01*
X99965000Y-133393571D01*
X99036428Y-133393571D01*
X102607857Y-130853571D02*
X102750714Y-130782142D01*
X102822142Y-130639285D01*
X102822142Y-129353571D01*
X102250714Y-129853571D02*
X101679285Y-129853571D01*
X102036428Y-130853571D02*
X102036428Y-129567857D01*
X101965000Y-129425000D01*
X101822142Y-129353571D01*
X101679285Y-129353571D01*
X100965000Y-130853571D02*
X101107857Y-130782142D01*
X101179285Y-130710714D01*
X101250714Y-130567857D01*
X101250714Y-130139285D01*
X101179285Y-129996428D01*
X101107857Y-129925000D01*
X100965000Y-129853571D01*
X100750714Y-129853571D01*
X100607857Y-129925000D01*
X100536428Y-129996428D01*
X100465000Y-130139285D01*
X100465000Y-130567857D01*
X100536428Y-130710714D01*
X100607857Y-130782142D01*
X100750714Y-130853571D01*
X100965000Y-130853571D01*
X99036428Y-130853571D02*
X99893571Y-130853571D01*
X99465000Y-130853571D02*
X99465000Y-129353571D01*
X99607857Y-129567857D01*
X99750714Y-129710714D01*
X99893571Y-129782142D01*
X102107857Y-126885000D02*
X102250714Y-126813571D01*
X102465000Y-126813571D01*
X102679285Y-126885000D01*
X102822142Y-127027857D01*
X102893571Y-127170714D01*
X102965000Y-127456428D01*
X102965000Y-127670714D01*
X102893571Y-127956428D01*
X102822142Y-128099285D01*
X102679285Y-128242142D01*
X102465000Y-128313571D01*
X102322142Y-128313571D01*
X102107857Y-128242142D01*
X102036428Y-128170714D01*
X102036428Y-127670714D01*
X102322142Y-127670714D01*
X101393571Y-128313571D02*
X101393571Y-126813571D01*
X100536428Y-128313571D01*
X100536428Y-126813571D01*
X99822142Y-128313571D02*
X99822142Y-126813571D01*
X99465000Y-126813571D01*
X99250714Y-126885000D01*
X99107857Y-127027857D01*
X99036428Y-127170714D01*
X98965000Y-127456428D01*
X98965000Y-127670714D01*
X99036428Y-127956428D01*
X99107857Y-128099285D01*
X99250714Y-128242142D01*
X99465000Y-128313571D01*
X99822142Y-128313571D01*
X102107857Y-110375000D02*
X102250714Y-110303571D01*
X102465000Y-110303571D01*
X102679285Y-110375000D01*
X102822142Y-110517857D01*
X102893571Y-110660714D01*
X102965000Y-110946428D01*
X102965000Y-111160714D01*
X102893571Y-111446428D01*
X102822142Y-111589285D01*
X102679285Y-111732142D01*
X102465000Y-111803571D01*
X102322142Y-111803571D01*
X102107857Y-111732142D01*
X102036428Y-111660714D01*
X102036428Y-111160714D01*
X102322142Y-111160714D01*
X101393571Y-111803571D02*
X101393571Y-110303571D01*
X100536428Y-111803571D01*
X100536428Y-110303571D01*
X99822142Y-111803571D02*
X99822142Y-110303571D01*
X99465000Y-110303571D01*
X99250714Y-110375000D01*
X99107857Y-110517857D01*
X99036428Y-110660714D01*
X98965000Y-110946428D01*
X98965000Y-111160714D01*
X99036428Y-111446428D01*
X99107857Y-111589285D01*
X99250714Y-111732142D01*
X99465000Y-111803571D01*
X99822142Y-111803571D01*
X112232142Y-114343571D02*
X112232142Y-112843571D01*
X111660714Y-112843571D01*
X111517857Y-112915000D01*
X111446428Y-112986428D01*
X111375000Y-113129285D01*
X111375000Y-113343571D01*
X111446428Y-113486428D01*
X111517857Y-113557857D01*
X111660714Y-113629285D01*
X112232142Y-113629285D01*
X109946428Y-114343571D02*
X110803571Y-114343571D01*
X110375000Y-114343571D02*
X110375000Y-112843571D01*
X110517857Y-113057857D01*
X110660714Y-113200714D01*
X110803571Y-113272142D01*
X112232142Y-116883571D02*
X112232142Y-115383571D01*
X111660714Y-115383571D01*
X111517857Y-115455000D01*
X111446428Y-115526428D01*
X111375000Y-115669285D01*
X111375000Y-115883571D01*
X111446428Y-116026428D01*
X111517857Y-116097857D01*
X111660714Y-116169285D01*
X112232142Y-116169285D01*
X110446428Y-115383571D02*
X110303571Y-115383571D01*
X110160714Y-115455000D01*
X110089285Y-115526428D01*
X110017857Y-115669285D01*
X109946428Y-115955000D01*
X109946428Y-116312142D01*
X110017857Y-116597857D01*
X110089285Y-116740714D01*
X110160714Y-116812142D01*
X110303571Y-116883571D01*
X110446428Y-116883571D01*
X110589285Y-116812142D01*
X110660714Y-116740714D01*
X110732142Y-116597857D01*
X110803571Y-116312142D01*
X110803571Y-115955000D01*
X110732142Y-115669285D01*
X110660714Y-115526428D01*
X110589285Y-115455000D01*
X110446428Y-115383571D01*
X112232142Y-119423571D02*
X112232142Y-117923571D01*
X111660714Y-117923571D01*
X111517857Y-117995000D01*
X111446428Y-118066428D01*
X111375000Y-118209285D01*
X111375000Y-118423571D01*
X111446428Y-118566428D01*
X111517857Y-118637857D01*
X111660714Y-118709285D01*
X112232142Y-118709285D01*
X110017857Y-117923571D02*
X110732142Y-117923571D01*
X110803571Y-118637857D01*
X110732142Y-118566428D01*
X110589285Y-118495000D01*
X110232142Y-118495000D01*
X110089285Y-118566428D01*
X110017857Y-118637857D01*
X109946428Y-118780714D01*
X109946428Y-119137857D01*
X110017857Y-119280714D01*
X110089285Y-119352142D01*
X110232142Y-119423571D01*
X110589285Y-119423571D01*
X110732142Y-119352142D01*
X110803571Y-119280714D01*
X113125000Y-120463571D02*
X112625000Y-121963571D01*
X112125000Y-120463571D01*
X111625000Y-121963571D02*
X111625000Y-120463571D01*
X111267857Y-120463571D01*
X111053571Y-120535000D01*
X110910714Y-120677857D01*
X110839285Y-120820714D01*
X110767857Y-121106428D01*
X110767857Y-121320714D01*
X110839285Y-121606428D01*
X110910714Y-121749285D01*
X111053571Y-121892142D01*
X111267857Y-121963571D01*
X111625000Y-121963571D01*
X110125000Y-121963571D02*
X110125000Y-120463571D01*
X109767857Y-120463571D01*
X109553571Y-120535000D01*
X109410714Y-120677857D01*
X109339285Y-120820714D01*
X109267857Y-121106428D01*
X109267857Y-121320714D01*
X109339285Y-121606428D01*
X109410714Y-121749285D01*
X109553571Y-121892142D01*
X109767857Y-121963571D01*
X110125000Y-121963571D01*
X102965000Y-120463571D02*
X102465000Y-121963571D01*
X101965000Y-120463571D01*
X101465000Y-121963571D02*
X101465000Y-120463571D01*
X101107857Y-120463571D01*
X100893571Y-120535000D01*
X100750714Y-120677857D01*
X100679285Y-120820714D01*
X100607857Y-121106428D01*
X100607857Y-121320714D01*
X100679285Y-121606428D01*
X100750714Y-121749285D01*
X100893571Y-121892142D01*
X101107857Y-121963571D01*
X101465000Y-121963571D01*
X99965000Y-121963571D02*
X99965000Y-120463571D01*
X99607857Y-120463571D01*
X99393571Y-120535000D01*
X99250714Y-120677857D01*
X99179285Y-120820714D01*
X99107857Y-121106428D01*
X99107857Y-121320714D01*
X99179285Y-121606428D01*
X99250714Y-121749285D01*
X99393571Y-121892142D01*
X99607857Y-121963571D01*
X99965000Y-121963571D01*
X102707142Y-119423571D02*
X102707142Y-117923571D01*
X102135714Y-117923571D01*
X101992857Y-117995000D01*
X101921428Y-118066428D01*
X101850000Y-118209285D01*
X101850000Y-118423571D01*
X101921428Y-118566428D01*
X101992857Y-118637857D01*
X102135714Y-118709285D01*
X102707142Y-118709285D01*
X100564285Y-118423571D02*
X100564285Y-119423571D01*
X100921428Y-117852142D02*
X101278571Y-118923571D01*
X100350000Y-118923571D01*
X102707142Y-116883571D02*
X102707142Y-115383571D01*
X102135714Y-115383571D01*
X101992857Y-115455000D01*
X101921428Y-115526428D01*
X101850000Y-115669285D01*
X101850000Y-115883571D01*
X101921428Y-116026428D01*
X101992857Y-116097857D01*
X102135714Y-116169285D01*
X102707142Y-116169285D01*
X101350000Y-115383571D02*
X100421428Y-115383571D01*
X100921428Y-115955000D01*
X100707142Y-115955000D01*
X100564285Y-116026428D01*
X100492857Y-116097857D01*
X100421428Y-116240714D01*
X100421428Y-116597857D01*
X100492857Y-116740714D01*
X100564285Y-116812142D01*
X100707142Y-116883571D01*
X101135714Y-116883571D01*
X101278571Y-116812142D01*
X101350000Y-116740714D01*
X102707142Y-114343571D02*
X102707142Y-112843571D01*
X102135714Y-112843571D01*
X101992857Y-112915000D01*
X101921428Y-112986428D01*
X101850000Y-113129285D01*
X101850000Y-113343571D01*
X101921428Y-113486428D01*
X101992857Y-113557857D01*
X102135714Y-113629285D01*
X102707142Y-113629285D01*
X101278571Y-112986428D02*
X101207142Y-112915000D01*
X101064285Y-112843571D01*
X100707142Y-112843571D01*
X100564285Y-112915000D01*
X100492857Y-112986428D01*
X100421428Y-113129285D01*
X100421428Y-113272142D01*
X100492857Y-113486428D01*
X101350000Y-114343571D01*
X100421428Y-114343571D01*
X109302857Y-146088571D02*
X109302857Y-145088571D01*
X109302857Y-145374285D02*
X109231428Y-145231428D01*
X109160000Y-145160000D01*
X109017142Y-145088571D01*
X108874285Y-145088571D01*
X107731428Y-146088571D02*
X107731428Y-145302857D01*
X107802857Y-145160000D01*
X107945714Y-145088571D01*
X108231428Y-145088571D01*
X108374285Y-145160000D01*
X107731428Y-146017142D02*
X107874285Y-146088571D01*
X108231428Y-146088571D01*
X108374285Y-146017142D01*
X108445714Y-145874285D01*
X108445714Y-145731428D01*
X108374285Y-145588571D01*
X108231428Y-145517142D01*
X107874285Y-145517142D01*
X107731428Y-145445714D01*
X107231428Y-145088571D02*
X106660000Y-145088571D01*
X107017142Y-144588571D02*
X107017142Y-145874285D01*
X106945714Y-146017142D01*
X106802857Y-146088571D01*
X106660000Y-146088571D01*
X105517142Y-145088571D02*
X105517142Y-146088571D01*
X105874285Y-144517142D02*
X106231428Y-145588571D01*
X105302857Y-145588571D01*
X105088571Y-146231428D02*
X103945714Y-146231428D01*
X103731428Y-145088571D02*
X103374285Y-146088571D01*
X103017142Y-145088571D01*
X101660000Y-146088571D02*
X102517142Y-146088571D01*
X102088571Y-146088571D02*
X102088571Y-144588571D01*
X102231428Y-144802857D01*
X102374285Y-144945714D01*
X102517142Y-145017142D01*
X101017142Y-145945714D02*
X100945714Y-146017142D01*
X101017142Y-146088571D01*
X101088571Y-146017142D01*
X101017142Y-145945714D01*
X101017142Y-146088571D01*
X100017142Y-144588571D02*
X99874285Y-144588571D01*
X99731428Y-144660000D01*
X99660000Y-144731428D01*
X99588571Y-144874285D01*
X99517142Y-145160000D01*
X99517142Y-145517142D01*
X99588571Y-145802857D01*
X99660000Y-145945714D01*
X99731428Y-146017142D01*
X99874285Y-146088571D01*
X100017142Y-146088571D01*
X100160000Y-146017142D01*
X100231428Y-145945714D01*
X100302857Y-145802857D01*
X100374285Y-145517142D01*
X100374285Y-145160000D01*
X100302857Y-144874285D01*
X100231428Y-144731428D01*
X100160000Y-144660000D01*
X100017142Y-144588571D01*
X108802857Y-147852857D02*
X109302857Y-147852857D01*
X109302857Y-148638571D02*
X109302857Y-147138571D01*
X108588571Y-147138571D01*
X108017142Y-148638571D02*
X108017142Y-147638571D01*
X108017142Y-147924285D02*
X107945714Y-147781428D01*
X107874285Y-147710000D01*
X107731428Y-147638571D01*
X107588571Y-147638571D01*
X106874285Y-148638571D02*
X107017142Y-148567142D01*
X107088571Y-148495714D01*
X107160000Y-148352857D01*
X107160000Y-147924285D01*
X107088571Y-147781428D01*
X107017142Y-147710000D01*
X106874285Y-147638571D01*
X106660000Y-147638571D01*
X106517142Y-147710000D01*
X106445714Y-147781428D01*
X106374285Y-147924285D01*
X106374285Y-148352857D01*
X106445714Y-148495714D01*
X106517142Y-148567142D01*
X106660000Y-148638571D01*
X106874285Y-148638571D01*
X105731428Y-147638571D02*
X105731428Y-148638571D01*
X105731428Y-147781428D02*
X105660000Y-147710000D01*
X105517142Y-147638571D01*
X105302857Y-147638571D01*
X105160000Y-147710000D01*
X105088571Y-147852857D01*
X105088571Y-148638571D01*
X104588571Y-147638571D02*
X104017142Y-147638571D01*
X104374285Y-147138571D02*
X104374285Y-148424285D01*
X104302857Y-148567142D01*
X104160000Y-148638571D01*
X104017142Y-148638571D01*
X102374285Y-148638571D02*
X102374285Y-147138571D01*
X101802857Y-147138571D01*
X101660000Y-147210000D01*
X101588571Y-147281428D01*
X101517142Y-147424285D01*
X101517142Y-147638571D01*
X101588571Y-147781428D01*
X101660000Y-147852857D01*
X101802857Y-147924285D01*
X102374285Y-147924285D01*
X100231428Y-148638571D02*
X100231428Y-147852857D01*
X100302857Y-147710000D01*
X100445714Y-147638571D01*
X100731428Y-147638571D01*
X100874285Y-147710000D01*
X100231428Y-148567142D02*
X100374285Y-148638571D01*
X100731428Y-148638571D01*
X100874285Y-148567142D01*
X100945714Y-148424285D01*
X100945714Y-148281428D01*
X100874285Y-148138571D01*
X100731428Y-148067142D01*
X100374285Y-148067142D01*
X100231428Y-147995714D01*
X99517142Y-147638571D02*
X99517142Y-148638571D01*
X99517142Y-147781428D02*
X99445714Y-147710000D01*
X99302857Y-147638571D01*
X99088571Y-147638571D01*
X98945714Y-147710000D01*
X98874285Y-147852857D01*
X98874285Y-148638571D01*
X97588571Y-148567142D02*
X97731428Y-148638571D01*
X98017142Y-148638571D01*
X98160000Y-148567142D01*
X98231428Y-148424285D01*
X98231428Y-147852857D01*
X98160000Y-147710000D01*
X98017142Y-147638571D01*
X97731428Y-147638571D01*
X97588571Y-147710000D01*
X97517142Y-147852857D01*
X97517142Y-147995714D01*
X98231428Y-148138571D01*
X96660000Y-148638571D02*
X96802857Y-148567142D01*
X96874285Y-148424285D01*
X96874285Y-147138571D01*
D12*
G04 #@! TO.C,J7*
X108645000Y-109795000D02*
X107315000Y-109795000D01*
X108645000Y-111125000D02*
X108645000Y-109795000D01*
X106045000Y-109795000D02*
X103445000Y-109795000D01*
X106045000Y-112395000D02*
X106045000Y-109795000D01*
X108645000Y-112395000D02*
X106045000Y-112395000D01*
X103445000Y-109795000D02*
X103445000Y-122615000D01*
X108645000Y-112395000D02*
X108645000Y-122615000D01*
X108645000Y-122615000D02*
X103445000Y-122615000D01*
G04 #@! TO.C,J8*
X108645000Y-76775000D02*
X107315000Y-76775000D01*
X108645000Y-78105000D02*
X108645000Y-76775000D01*
X106045000Y-76775000D02*
X103445000Y-76775000D01*
X106045000Y-79375000D02*
X106045000Y-76775000D01*
X108645000Y-79375000D02*
X106045000Y-79375000D01*
X103445000Y-76775000D02*
X103445000Y-89595000D01*
X108645000Y-79375000D02*
X108645000Y-89595000D01*
X108645000Y-89595000D02*
X103445000Y-89595000D01*
G04 #@! TO.C,J9*
X108645000Y-126305000D02*
X107315000Y-126305000D01*
X108645000Y-127635000D02*
X108645000Y-126305000D01*
X106045000Y-126305000D02*
X103445000Y-126305000D01*
X106045000Y-128905000D02*
X106045000Y-126305000D01*
X108645000Y-128905000D02*
X106045000Y-128905000D01*
X103445000Y-126305000D02*
X103445000Y-139125000D01*
X108645000Y-128905000D02*
X108645000Y-139125000D01*
X108645000Y-139125000D02*
X103445000Y-139125000D01*
G04 #@! TO.C,J7*
D11*
X108283333Y-108672380D02*
X108283333Y-109386666D01*
X108330952Y-109529523D01*
X108426190Y-109624761D01*
X108569047Y-109672380D01*
X108664285Y-109672380D01*
X107902380Y-108672380D02*
X107235714Y-108672380D01*
X107664285Y-109672380D01*
G04 #@! TO.C,J8*
X108283333Y-75652380D02*
X108283333Y-76366666D01*
X108330952Y-76509523D01*
X108426190Y-76604761D01*
X108569047Y-76652380D01*
X108664285Y-76652380D01*
X107664285Y-76080952D02*
X107759523Y-76033333D01*
X107807142Y-75985714D01*
X107854761Y-75890476D01*
X107854761Y-75842857D01*
X107807142Y-75747619D01*
X107759523Y-75700000D01*
X107664285Y-75652380D01*
X107473809Y-75652380D01*
X107378571Y-75700000D01*
X107330952Y-75747619D01*
X107283333Y-75842857D01*
X107283333Y-75890476D01*
X107330952Y-75985714D01*
X107378571Y-76033333D01*
X107473809Y-76080952D01*
X107664285Y-76080952D01*
X107759523Y-76128571D01*
X107807142Y-76176190D01*
X107854761Y-76271428D01*
X107854761Y-76461904D01*
X107807142Y-76557142D01*
X107759523Y-76604761D01*
X107664285Y-76652380D01*
X107473809Y-76652380D01*
X107378571Y-76604761D01*
X107330952Y-76557142D01*
X107283333Y-76461904D01*
X107283333Y-76271428D01*
X107330952Y-76176190D01*
X107378571Y-76128571D01*
X107473809Y-76080952D01*
G04 #@! TO.C,J9*
X108283333Y-125182380D02*
X108283333Y-125896666D01*
X108330952Y-126039523D01*
X108426190Y-126134761D01*
X108569047Y-126182380D01*
X108664285Y-126182380D01*
X107759523Y-126182380D02*
X107569047Y-126182380D01*
X107473809Y-126134761D01*
X107426190Y-126087142D01*
X107330952Y-125944285D01*
X107283333Y-125753809D01*
X107283333Y-125372857D01*
X107330952Y-125277619D01*
X107378571Y-125230000D01*
X107473809Y-125182380D01*
X107664285Y-125182380D01*
X107759523Y-125230000D01*
X107807142Y-125277619D01*
X107854761Y-125372857D01*
X107854761Y-125610952D01*
X107807142Y-125706190D01*
X107759523Y-125753809D01*
X107664285Y-125801428D01*
X107473809Y-125801428D01*
X107378571Y-125753809D01*
X107330952Y-125706190D01*
X107283333Y-125610952D01*
G04 #@! TD*
M02*
