"Index","Quantity","Part Number","Manufacturer Part Number","Description","Customer Reference","Available","Backorder","Unit Price","Extended Price CAD"
"1","3","ATMEGA328-PU-ND","ATMEGA328-PU","IC MCU 8BIT 32KB FLASH 28DIP","MCU","3","0","2.95000","8.85"
"2","2","887-1244-ND","9B-16.000MEEJ-B","CRYSTAL 16.0000MHZ 18PF T/H","Y1","2","0","0.75000","1.50"
"3","2","887-1248-ND","9B-20.000MEEJ-B","CRYSTAL 20.0000MHZ 18PF T/H","Y1","2","0","0.72000","1.44"
"4","10","497-2204-1-ND","TL074CDT","IC OPAMP JFET 4 CIRCUIT 14SO","U6,U7","10","0","0.57100","5.71"
"5","10","RMCF0805FT1M00CT-ND","RMCF0805FT1M00","RES 1M OHM 1% 1/8W 0805","R1","10","0","0.04100","0.41"
"6","4","ED10523-ND","302-S161","CONN HEADER VERT 16POS 2.54MM","HE14","4","0","0.57000","2.28"
"7","10","1N4148WXTPMSCT-ND","1N4148WX-TP","DIODE GEN PURP 75V 150MA SOD323","1N4148","10","0","0.17700","1.77"
"8","100","RMCF0805FT100KCT-ND","RMCF0805FT100K","RES 100K OHM 1% 1/8W 0805","100K","100","0","0.01640","1.64"
"9","10","RMCF0805FT200KCT-ND","RMCF0805FT200K","RES 200K OHM 1% 1/8W 0805","200K","10","0","0.04100","0.41"
"10","5","1993-1123-ND","PT10LV10-503A2020-S","POT 50K OHM LINEAR","50K","5","0","0.65000","3.25"
"11","10","478-10471-1-ND","08052U300FAT2A","CAP CER 30PF 200V NP0 0805","CX","10","0","0.53300","5.33"
"12","10","1572-1659-ND","107CKS025MEM","CAP ALUM 100UF 20% 25V THRU HOLE","100uF","10","0","0.17000","1.70"
"13","100","RMCF0805FT10K0CT-ND","RMCF0805FT10K0","RES 10K OHM 1% 1/8W 0805","10K","100","0","0.01640","1.64"
"14","10","587-2985-1-ND","TMK212BBJ106KG-T","CAP CER 10UF 25V X5R 0805","10uF","10","0","0.19500","1.95"
"15","10","732-8074-1-ND","885012207092","CAP CER 10000PF 50V X7R 0805","10nF","10","0","0.04800","0.48"
"16","10","1497-1026-ND","XLUGR58M","LED GRN/RED DIFFUSED T-1 3/4 T/H","LED5mm_G/R","10","0","0.53300","5.33"
"17","5","EG2021-ND","PS1024ALBLK","SWITCH PUSH SPST-NO 3A 125V","","5","0","1.73000","8.65"
"18","2","PTA2043-2015DPB103-ND","PTA2043-2015DPB103","SLIDE POT 10K OHM 0.1W TOP 20MM","10k_20mm","2","0","1.82000","3.64"
"19","10","987-1290-ND","P110KH1-0F25BR10K","POT 10K OHM 1/20W PLASTIC LINEAR","","10","0","1.23000","12.30"
"20","12","102-5674-ND","MJ-3507","CONN AUDIO JACK 3.5MM MONO","","12","0","1.51400","18.17"
"21","10","2N3904FS-ND","2N3904BU","TRANS NPN 40V 0.2A TO-92","NPN","10","0","0.24000","2.40"
"22","100","RMCF0805FT1K00CT-ND","RMCF0805FT1K00","RES 1K OHM 1% 1/8W 0805","1K","100","0","0.01640","1.64"
"23","100","RMCF0805FT220RCT-ND","RMCF0805FT220R","RES 220 OHM 1% 1/8W 0805","220R","100","0","0.01640","1.64"
"24","100","RMCF0805FT4K70CT-ND","RMCF0805FT4K70","RES 4.7K OHM 1% 1/8W 0805","","100","0","0.01640","1.64"
"25","10","ED1543-ND","302-S101","CONN HEADER VERT 10POS 2.54MM","usbASP","10","0","0.37200","3.72"
"26","100","1276-1099-1-ND","CL21B104KACNNNC","CAP CER 0.1UF 25V X7R 0805","100nF","100","0","0.02840","2.84"
"27","2","ED3050-5-ND","ED281DT","CONN IC DIP SOCKET 28POS TIN","28DIP","2","0","0.47000","0.94"